/* XPM */
static char * title_5_inactive_xpm[] = {
"2 26 3 1",
" 	c None",
".	c #12121f",
"+	c #12121f",
"..",
"++",
"++",
"++",
"++",
"++",
"++",
"++",
"++",
"++",
"++",
"++",
"++",
"++",
"++",
"++",
"++",
"++",
"++",
"++",
"++",
"++",
"++",
"++",
"++",
"++"};
