<svg xmlns="http://www.w3.org/2000/svg" viewBox="0 0 16 16">
 <g transform="translate(0,-1036.3622)">
  <path d="m 7 1036.36 c -3.412 0 -7 3.588 -7 8 c 0 4.412 3.588 8 7 8 5.412 0 9 -3.588 9 -8 0 -4.412 -3.588 -8 -8 -8 z m 1.65 1.125 c 0.746 0.069 1.468 0.239 2.125 0.525 -0.051 0.063 -0.09 0.119 -0.125 0.225 -0.202 0.606 -0.504 0.317 -0.15 1.075 0.354 0.757 0.649 0.953 0.75 0.6 0.101 -0.353 -0.254 -0.852 0.15 -0.65 0.404 0.202 0.703 -0.055 0.4 0.4 -0.303 0.455 -0.296 0.701 -0.65 0.6 -0.354 -0.101 -0.346 0.599 -0.7 0.7 -0.354 0.101 -0.475 -0.152 -0.475 0.1 0 0.252 0.201 0.021 0.15 0.425 -0.015 0.124 -0.011 0.146 -0.025 0.2 -0.332 -0.095 -0.48 -0.148 -0.725 -0.051 -0.253 0.101 -0.55 0.75 -0.55 0.75 0.315 0.315 0.462 0.543 0.575 0.65 -0.071 0.035 -0.156 0.05 -0.225 0.1 -0.505 0.354 -0.898 0.42 -1.05 0.925 -0.152 0.505 -0.1 0.043 -0.1 0.65 0 0.606 -0.153 0.194 0.15 0.75 0.303 0.556 1.046 0.822 1.4 1.125 0.354 0.303 0.718 -0.659 1.425 0.25 0.707 0.909 0.753 0.545 0.5 1.05 -0.253 0.505 -0.499 0.673 -0.6 0.875 -0.101 0.202 0.196 0.899 0.55 1.05 0.007 0 0.017 0 0.025 0 -0.019 0.043 -0.031 0.082 -0.05 0.125 -0.458 0.208 -1.019 0.495 -1.125 0.525 -0.25 0.072 -1.132 0.221 -1.775 0.4 -0.08 0.023 -0.144 0.023 -0.175 0.026 0.08 -0.087 0.712 -0.417 1.025 -0.6 0.429 -0.251 -0.025 -0.225 -0.025 -0.225 0 0 -0.682 -0.076 -2.075 -0.076 -0.696 0 -0.998 0.031 -1.15 0.076 -0.076 0.023 -0.113 0.045 -0.15 0.075 -0.037 0.031 -0.063 0.064 -0.125 0.1 -0.25 0.143 0.146 0.293 -0.175 0.4 -0.241 0.08 -0.269 0 -0.475 -0.151 0.147 -0.146 0.35 -0.322 0.6 -0.625 0.455 -0.55 0.598 -0.45 0.75 -0.95 0.152 -0.5 -1.275 -0.35 -1.275 -0.65 0 -0.3 -0.245 -0.5 -0.7 -0.7 -0.455 -0.2 -0.145 -0.3 -0.65 -0.45 -0.505 -0.149 -1.073 0.75 -1.225 0.45 -0.152 -0.3 0.475 -0.3 0.475 -0.65 0 -0.342 -0.72 0.258 -0.85 -0.175 -0.003 -0.016 -0.022 -0.016 -0.025 -0.026 -0.013 -0.063 -0.005 -0.1 0 -0.149 0.032 -0.36 0.448 -0.5 0.625 -0.85 0.202 -0.4 0.097 0.3 0.35 0.65 0.253 0.35 0.152 -0.45 0 -0.9 -0.152 -0.45 0.096 -0.45 0.45 -1.05 0.354 -0.6 0.35 -0.95 0.35 -1.4 0 -0.45 0.245 -0.5 0.75 -0.95 0.231 -0.206 0.413 -0.386 0.55 -0.55 0.033 -0.016 0.067 -0.016 0.1 -0.026 0.536 -0.214 0.761 -0.536 1.225 -1.5 0.464 -0.964 -0.182 -0.064 -0.325 -0.1 -0.143 -0.035 -0.35 -0.289 -0.85 -0.575 -0.103 -0.059 -0.195 -0.087 -0.275 -0.099 l 0.925 -1.525 c 0.296 -0.08 0.614 -0.135 0.925 -0.175 0.114 0.647 0.05 1.25 0.05 1.25 0 0 -0.175 0.207 -0.175 0.35 0 0.143 0.957 -1.178 1.1 -1.25 0.143 -0.072 0.504 0.379 0.575 -0.3 0.004 -0.039 -0.005 -0.04 0 -0.075 z m 1.35 2.7 c -0.051 -0.016 -0.112 0 -0.175 0.026 0 0.177 -0.068 0.305 -0.1 0.375 -0.019 -0.032 -0.075 -0.075 -0.075 -0.075 -0.076 0.14 -0.239 0.263 -0.075 0.225 0.164 -0.037 0.289 0.064 0.175 -0.075 -0.022 -0.026 -0.012 -0.015 -0.025 -0.026 0.021 0.016 0.062 0.026 0.15 0.026 0.099 0 0.153 0 0.225 0 -0.122 0.09 -0.255 0.128 -0.075 0.175 0.24 0.063 0.35 0.076 0.35 0.026 0 -0.05 -0.075 -0.225 -0.075 -0.225 0.047 -0.019 0.09 -0.043 0.05 -0.125 -0.076 -0.151 -0.196 -0.301 -0.35 -0.325 z m 3.825 0.425 c 0.125 0.194 0.245 0.394 0.35 0.6 -0.07 0.403 -0.246 0.675 0.05 0.675 0.083 0 0.157 -0.018 0.225 -0.026 0.009 0.024 0.016 0.051 0.025 0.075 -0.505 0 -0.747 0.151 -1 0.1 -0.253 -0.051 -0.955 -0.096 -0.5 -0.55 0.266 -0.266 0.598 -0.688 0.85 -0.875 z m -3.15 0.925 c 0.047 0.015 0.087 0.063 0.125 0.149 0.152 0.354 0.402 0.65 0.2 0.7 -0.202 0.05 -0.3 0.1 -0.3 0.1 0 0 0.699 0.455 0.75 -0.05 0.051 -0.505 -0.2 -0.8 -0.2 -0.8 0 0 0.349 0.348 0.45 0.55 0.101 0.202 0.097 0 0.35 0.25 0.253 0.252 0.196 -1 0.55 -0.65 0.354 0.353 0.576 0.348 0.475 0.6 -0.101 0.252 0.65 -0.305 0.65 0.2 0 0.487 0.311 0.685 -0.3 0.925 -0.231 -0.016 -0.414 -0.055 -0.45 -0.125 -0.101 -0.202 -0.675 -0.05 -0.675 -0.05 -1.511 -0.378 -2.167 -0.497 -2.6 -0.425 0.008 -0.016 0.016 -0.016 0.025 -0.026 0.221 -0.398 0.637 -0.951 0.5 -1.15 0.193 -0.111 0.344 -0.233 0.45 -0.2 z m 4.25 2.525 c 0.005 0.101 0 0.197 0 0.3 0 0.284 -0.017 0.575 -0.05 0.85 -0.454 -0.404 -1.1 -0.4 -1.1 -0.4 0 0 0.394 -0.448 0.95 -0.65 0.069 -0.026 0.144 -0.059 0.2 -0.1 z" style="fill:#3ddbd9;fill-opacity:1;color:#000"/>
 </g>
</svg>
