<svg xmlns="http://www.w3.org/2000/svg" width="24" height="24" version="1.1">
 <defs>
  <style id="current-color-scheme" type="text/css">
   .ColorScheme-Text { color:#E19235; } .ColorScheme-Highlight { color:#5294e2; }
  </style>
 </defs>
 <path style="fill:currentColor;opacity:0.3" class="ColorScheme-Text" d="m 11.504661,4.000003 c -0.01002,0.022434 -0.0318,0.014113 -0.04883,0.015644 C 11.217403,4.035864 10.980158,4.06073 10.74484,4.103645 9.025308,4.4169279 7.6128896,5.2304677 6.5199057,6.5421687 5.6208367,7.6208853 5.1267988,8.8583019 5.0197906,10.238086 c -0.051804,0.668726 -0.002,1.63034 0.1504026,2.284038 0.1131786,0.486254 0.2825566,0.956944 0.5098041,1.406013 0.019952,0.03822 0.038283,0.07716 0.058594,0.115375 0.3733396,0.707033 0.8533344,1.337038 1.4551906,1.881202 0.3168343,0.28646 0.6569274,0.544583 1.0235156,0.768516 0.9706644,0.592534 2.0205865,1.176252 3.1447725,1.292594 l 0.246113,0.02542 c 0.08179,0.0011 0.393138,0.02134 0.392607,0.101687 -0.0037,0.685707 -0.0021,1.115189 -0.002,1.801026 8.9e-5,0.02661 0.0023,0.05295 0.0039,0.08604 0,0 0.274393,-0.124547 0.507851,-0.234661 1.16359,-0.568634 2.238358,-1.264972 3.209231,-2.113908 0.218117,-0.190663 0.426276,-0.390324 0.627002,-0.598387 0.08595,-0.08898 0.171706,-0.180973 0.257832,-0.269861 0.133051,-0.136837 0.247656,-0.290038 0.373075,-0.434124 0.144852,-0.166182 0.276068,-0.342379 0.404328,-0.520166 0.283572,-0.39293 0.537181,-0.802905 0.750058,-1.235883 0.107678,-0.218898 0.210058,-0.439068 0.300805,-0.664874 0.003,-0.0042 0.0059,-0.0071 0.0078,-0.01173 0.247299,-0.618315 0.405916,-1.258046 0.490273,-1.914447 0.02946,-0.228629 0.04848,-0.460385 0.06056,-0.690295 0.02572,-0.495045 -0.0068,-1.286555 -0.09962,-1.773649 C 18.64486,8.2389279 18.052377,7.1037048 17.118306,6.135423 16.724275,5.7266251 16.282023,5.3712382 15.793985,5.0696702 14.885916,4.5079946 13.896236,4.1630098 12.823053,4.0410709 12.692223,4.0261447 12.559415,4.0296129 12.430445,4.0000048 l -0.925852,0 z m -0.832095,4.9885105 c 0.207936,-2.503e-4 0.379029,0.2038125 0.312524,0.4028355 0.0159,0.0376 0.01367,0.07807 0.01367,0.117331 0,0.856045 8e-4,1.711442 0,2.567587 -6e-4,0.764733 -0.494784,1.47984 -1.2227495,1.773649 -0.018352,0.0076 -0.036773,0.01856 -0.054694,0.02737 -0.0098,0.0025 -0.019141,0.005 -0.029302,0.0078 -0.0056,0.0032 -0.011941,0.0048 -0.017581,0.0078 -0.1521117,0.04175 -0.3040814,0.07753 -0.4609734,0.09973 -0.1196782,0.01706 -0.156765,-0.04943 -0.1582152,-0.166219 -0.0012,-0.08184 -0.0013,-0.162518 -0.002,-0.244438 l 0.0039,-0.43999 c -6.501e-4,-0.03239 -0.002,-0.06555 -0.0019,-0.09778 1.891e-4,-0.112632 0.1135108,-0.159697 0.2578218,-0.191636 0.1830141,-0.04065 0.2325179,-0.09848 0.3750288,-0.226838 0.1709131,-0.154089 0.273321,-0.414366 0.3125245,-0.631631 -0.4937384,-0.001 -1.0042546,-0.001 -1.4981625,-0.002 -0.053694,-10e-5 -0.1063901,-10e-4 -0.1601683,-0.0019 -0.2016254,-0.0033 -0.33987,-0.401656 -0.33987,-0.598387 2.6e-4,-0.774545 0.0014,-1.216065 0.002,-1.99071 0,-0.0075 -0.0015,-0.01601 -0.002,-0.02347 -0.015541,-0.144957 0.027432,-0.263658 0.1601683,-0.34417 0.051564,-0.03147 0.1086553,-0.043022 0.1679818,-0.043022 0.78076,-4.509e-4 1.5611668,-0.00105 2.3419767,-0.00195 z m 4.000307,0 c 0.207936,-2.503e-4 0.379029,0.2038125 0.312524,0.4028355 0.0159,0.0376 0.01367,0.07807 0.01367,0.117331 0,0.856045 8e-4,1.711442 0,2.567587 -6e-4,0.764733 -0.496738,1.47984 -1.224704,1.773649 -0.01835,0.0076 -0.03481,0.01856 -0.05273,0.02737 -0.0098,0.0025 -0.01914,0.005 -0.0293,0.0078 -0.0056,0.0032 -0.01198,0.0048 -0.01758,0.0078 -0.152112,0.04175 -0.306034,0.07753 -0.462926,0.09973 -0.119679,0.01706 -0.154762,-0.04943 -0.156262,-0.166219 -0.0013,-0.08184 -0.0013,-0.162518 -0.002,-0.244438 l 0.0039,-0.43999 c -6e-4,-0.03239 -0.0021,-0.06555 -0.002,-0.09778 1.7e-4,-0.11265 0.111528,-0.15967 0.255879,-0.19164 0.183014,-0.04067 0.232558,-0.09853 0.375028,-0.226839 0.170984,-0.154069 0.273261,-0.414285 0.312524,-0.63163 -0.493745,-9.98e-4 -1.002308,-10e-4 -1.496216,-0.002 -0.05369,-10e-5 -0.108348,-10e-4 -0.162122,-0.0019 -0.201625,-0.0032 -0.33987,-0.401657 -0.33987,-0.598388 3e-4,-0.774545 0.0014,-1.216065 0.0019,-1.99071 0,-0.0075 4.5e-4,-0.01601 0,-0.02347 -0.01554,-0.144957 0.02743,-0.263658 0.160169,-0.34417 0.05156,-0.03147 0.106704,-0.043022 0.166028,-0.043022 0.78076,-4.506e-4 1.56312,-0.00105 2.34393,-0.00195 z"/>
</svg>
