<svg xmlns="http://www.w3.org/2000/svg" width="24" height="24" version="1.1">
 <defs>
  <style id="current-color-scheme" type="text/css">
   .ColorScheme-Text { color:#E19235; } .ColorScheme-Highlight { color:#5294e2; }
  </style>
 </defs>
 <g transform="translate(-32 -596.36)">
  <path style="fill:currentColor" class="ColorScheme-Text" d="m37 615.37 14-14v14z"/>
 </g>
</svg>
