<svg xmlns="http://www.w3.org/2000/svg" width="24" height="24" version="1">
 <defs>
  <style id="current-color-scheme" type="text/css">
   .ColorScheme-Text { color:#E19235; } .ColorScheme-Highlight { color:#5294e2; }
  </style>
 </defs>
 <path style="fill:currentColor" class="ColorScheme-Text" d="m8 4a4 4 0 0 0 -4 4 4 4 0 0 0 1.1152 2.77 7 7 0 0 0 -0.1152 1.23 7 7 0 0 0 7 7 7 7 0 0 0 1.238 -0.113 4 4 0 0 0 2.762 1.113 4 4 0 0 0 4 -4 4 4 0 0 0 -1.115 -2.77 7 7 0 0 0 0.115 -1.23 7 7 0 0 0 -7 -7 7 7 0 0 0 -1.238 0.1133 4 4 0 0 0 -2.762 -1.1133zm4.127 4c1.9736 0 2.9922 1.0424 2.9922 1.6543 0 0.61395-0.29491 0.70508-0.7793 0.70508-0.94131 0-0.5552-1.1328-2.3184-1.1328-0.58345 0-1.3125 0.26546-1.3125 0.94726 0 0.5481 0.6457 0.75005 1.7852 1.0312 1.718 0.46 3.006 0.919 3.006 2.496 0 1.531-1.247 2.299-3.221 2.299-1.973 0-3.2341-1.181-3.2341-1.793 0-0.6119 0.23241-0.76562 0.7168-0.76562 0.94281 0 0.81697 1.2891 2.5801 1.2891 0.5855 0 1.4492-0.26732 1.4492-0.95117 0-0.54605-0.04607-0.73496-1.2969-1.0723-1.336-0.181-3.494-0.616-3.494-2.283 0-1.5311 1.155-2.422 3.129-2.422l-0.002-0.002z"/>
 <path style="fill:currentColor" class="ColorScheme-Text" d="m-22.069-4.0812"/>
</svg>
