<svg xmlns="http://www.w3.org/2000/svg" width="24" height="24" version="1.1">
 <defs>
  <style id="current-color-scheme" type="text/css">
   .ColorScheme-Text { color:#E19235; } .ColorScheme-Highlight { color:#5294e2; }
  </style>
 </defs>
 <g transform="translate(0 -1028.4)">
  <path style="fill:currentColor" class="ColorScheme-Text" d="m12 4c-0.259 0-0.518 0.1002-0.717 0.2988l-6.9842 6.9842c-0.3972 0.397-0.3972 1.037 0 1.434l6.9842 6.984c0.397 0.397 1.037 0.397 1.434 0l6.984-6.984c0.397-0.397 0.397-1.037 0-1.434l-6.984-6.9842c-0.199-0.1986-0.458-0.2988-0.717-0.2988zm-0.107 4c0.731 0 1.3 0.1761 1.709 0.5273 0.411 0.3514 0.617 0.8189 0.617 1.4043 0 0.4894-0.145 0.9004-0.436 1.2304s-0.707 0.541-1.246 0.633v0.031c1.281 0.167 1.922 0.786 1.922 1.854 0 0.72-0.245 1.288-0.734 1.703-0.49 0.411-1.197 0.617-2.123 0.617-0.859 0-1.546-0.14-2.061-0.42v-0.906c0.653 0.341 1.333 0.512 2.039 0.512 1.256 0 1.883-0.512 1.883-1.538 0-0.915-0.675-1.375-2.027-1.375h-0.707v-0.802h0.707c0.567 0 1.008-0.135 1.32-0.405 0.312-0.269 0.469-0.626 0.469-1.0699 0-0.3619-0.122-0.648-0.364-0.8574-0.241-0.2129-0.564-0.3184-0.968-0.3184-0.632 0-1.241 0.2133-1.831 0.6426l-0.4897-0.6641c0.6637-0.5322 1.4367-0.7988 2.3207-0.7988z" transform="translate(0 1028.4)"/>
 </g>
</svg>
