<svg xmlns="http://www.w3.org/2000/svg" width="24" height="24" version="1">
 <defs>
  <style id="current-color-scheme" type="text/css">
   .ColorScheme-Text { color:#E19235; } .ColorScheme-Highlight { color:#5294e2; }
  </style>
 </defs>
 <g transform="translate(1 1)">
  <path style="fill:currentColor" class="ColorScheme-Text" d="m12.473 18.859c-0.44553-0.26953-0.72983-0.73845-1.968-3.2406-0.68429-1.3858-1.3366-2.6166-1.4486-2.7347-0.12554-0.13292-1.1581-0.68183-2.7003-1.435-3.047-1.4867-3.3562-1.723-3.3562-2.5661 0-0.39261 0.19187-0.76922 0.49267-0.9649 0.10338-0.06736 3.2892-1.2072 7.0794-2.5329 6.6597-2.3292 6.9073-2.4093 7.3622-2.3815 0.3937 0.024 0.50776 0.063999 0.69688 0.24436 0.28356 0.27043 0.41112 0.64532 0.35593 1.0461-0.05937 0.43079-4.8406 13.937-5.0185 14.176-0.37922 0.50982-1.0227 0.67781-1.496 0.39054z"/>
  <circle style="fill:currentColor" class="ColorScheme-Highlight" cx="6" cy="16" r="2"/>
 </g>
</svg>
