<svg xmlns="http://www.w3.org/2000/svg" width="24" height="24" version="1">
 <defs>
  <style id="current-color-scheme" type="text/css">
   .ColorScheme-Text { color:#E19235; } .ColorScheme-Highlight { color:#5294e2; }
  </style>
 </defs>
 <path style="fill:currentColor" class="ColorScheme-Text" d="m18.934 4.0048c-0.455-0.0278-0.702 0.0517-7.362 2.3809-3.7899 1.3256-6.9764 2.4658-7.0798 2.5332-0.3008 0.1957-0.4922 0.5722-0.4922 0.9648 0 0.84306 0.30851 1.0797 3.3555 2.5664 1.5421 0.75322 2.5756 1.3026 2.7012 1.4355 0.112 0.11815 0.76492 1.3486 1.4492 2.7344 1.2381 2.5021 1.5213 2.9707 1.9668 3.2402 0.4733 0.28727 1.1169 0.1192 1.4961-0.39062 0.178-0.239 4.958-13.743 5.017-14.174 0.056-0.4009-0.072-0.7766-0.355-1.047-0.189-0.1804-0.304-0.2202-0.697-0.2442zm-11.934 10.996a2 2 0 0 0 -2 2 2 2 0 0 0 2 2 2 2 0 0 0 2 -2 2 2 0 0 0 -2 -2z"/>
</svg>
