<svg xmlns="http://www.w3.org/2000/svg" viewBox="0 0 16 16">
 <g transform="translate(0,-1036.3622)">
  <path d="m 1 1036.36 0 5 5 0 -1.719 -1.719 c 1.023 -0.803 2.318 -1.281 3.719 -1.281 3.314 0 6 2.686 6 6 0 3.314 -2.686 6 -6 6 -3.314 0 -6 -2.686 -6 -6 0 -0.701 0.123 -1.375 0.344 -2 l -2.094 0 c -0.164 0.638 -0.25 1.311 -0.25 2 0 4.418 3.582 8 8 8 4.418 0 8 -3.582 8 -8 0 -4.418 -3.582 -8 -8 -8 -1.957 0 -3.766 0.677 -5.156 1.844 l -1.844 -1.844 z m 6.906 2.969 a 1 1 0 0 0 -0.125 0.031 1 1 0 0 0 -0.781 1 l 0 3.688 a 1 1 0 0 0 0 0.094 1 1 0 0 0 0.125 0.75 1 1 0 0 0 0.031 0.031 1 1 0 0 0 0.031 0.062 1 1 0 0 0 0.031 0.031 1 1 0 0 0 0.031 0.031 1 1 0 0 0 0.031 0.031 1 1 0 0 0 0.031 0.031 1 1 0 0 0 0.063 0.031 1 1 0 0 0 0.031 0.031 1 1 0 0 0 0.031 0.031 1 1 0 0 0 0.063 0.031 1 1 0 0 0 0.125 0.062 l 2.469 1.438 a 1.01 1.01 0 1 0 1 -1.75 l -2.094 -1.219 0 -3.406 a 1 1 0 0 0 -1.094 -1.031 z" style="fill:#7C9BB4;fill-opacity:1;color:#000"/>
 </g>
</svg>
