<svg xmlns="http://www.w3.org/2000/svg" viewBox="0 0 64 64">
 <defs>
  <radialGradient r="24" cy="40.5" cx="24" gradientTransform="matrix(1.6666667,0,0,0.2777777,-8,1030.4456)" gradientUnits="userSpaceOnUse" id="radialGradient3145">
   <stop style="stop-color:#000;stop-opacity:1"/>
   <stop offset="1" style="stop-color:#000;stop-opacity:0.196"/>
  </radialGradient>
 </defs>
 <g transform="translate(0,-988.3622)">
  <path d="m 32 1035.03 c -13.1 0 -24.704 1.044 -32 2.667 l 0 8 c 7.296 1.622 18.898 2.667 32 2.667 13.1 0 24.704 -1.044 32 -2.667 l 0 -8 c -7.296 -1.623 -18.898 -2.667 -32 -2.667 z" style="fill:url(#radialGradient3145);opacity:0.1;fill-opacity:1;stroke:none"/>
  <rect width="60" height="42" x="2" y="1002.36" rx="6.522" ry="6.562" style="fill:#89B7B0;fill-opacity:1;stroke:none"/>
  <path d="m 8.522 1001.7 c -3.613 0 -6.522 2.973 -6.522 6.667 l 0 2.667 c 0 -3.693 2.909 -6.667 6.522 -6.667 l 46.957 0 c 3.613 0 6.522 2.973 6.522 6.667 l 0 -2.667 c 0 -3.693 -2.909 -6.667 -6.522 -6.667 l -46.957 0 z" style="fill:#fff;opacity:0.2;fill-opacity:1;stroke:none"/>
  <rect width="40" height="34" x="12" y="994.36" ry="2.72" rx="2.667" style="fill:#eae7d1;fill-opacity:1;stroke:none"/>
  <rect y="1012.36" x="16" height="2" width="32" style="fill:#7a7a68;fill-opacity:1;stroke:none"/>
  <rect y="1004.36" x="16" height="2" width="32" style="fill:#7a7a68;fill-opacity:1;stroke:none"/>
  <rect width="32" height="2" x="16" y="1008.36" style="fill:#7a7a68;fill-opacity:1;stroke:none"/>
  <rect width="32" height="2" x="16" y="1016.36" style="fill:#7a7a68;fill-opacity:1;stroke:none"/>
  <path d="m 8.522 1020.36 10.435 0 c 14.348 -1 11.739 -12 20.87 -12 l 15.652 0 c 3.613 0 6.522 2.23 6.522 5 l 0 26 c 0 2.77 -2.909 5 -6.522 5 l -46.957 0 c -3.613 0 -6.522 -2.23 -6.522 -5 l 0 -14 c 0 -3 2.609 -5 6.522 -5 z" style="fill:#7C9BB4;fill-opacity:1;stroke:none"/>
  <rect width="32" height="2" x="16" y="1000.36" style="fill:#7a7a68;fill-opacity:1;stroke:none"/>
  <path d="m 2 1035.03 0 2.667 c 0 3.693 2.909 6.667 6.522 6.667 l 46.957 0 c 3.613 0 6.522 -2.973 6.522 -6.667 l 0 -2.667 c 0 3.693 -2.909 7.333 -6.522 7.333 l -46.957 0 c -3.613 0 -6.522 -3.64 -6.522 -7.333 z" style="fill:#000;opacity:0.15;fill-opacity:1;stroke:none"/>
 </g>
</svg>
