<svg xmlns="http://www.w3.org/2000/svg" width="22" height="22" version="1.1">
 <defs>
  <style id="current-color-scheme" type="text/css">
   .ColorScheme-Text { color:#E19235; } .ColorScheme-Highlight { color:#5294e2; }
  </style>
 </defs>
 <g transform="matrix(1.2 0 0 1.3333 -608.2 -58.333)">
  <path style="fill:currentColor" class="ColorScheme-Text" d="m8 3v9h-3l6 7 6-7h-3v-9h-6zm1 1h1 3v1h-3v2h2v1h-2v4h-1v-4-1-2-1z" transform="matrix(.83333 0 0 0.75 506.83 43.75)"/>
 </g>
</svg>
