<svg xmlns="http://www.w3.org/2000/svg" width="22" height="22" version="1.1">
 <defs>
  <style id="current-color-scheme" type="text/css">
   .ColorScheme-Text { color:#E19235; } .ColorScheme-Highlight { color:#5294e2; }
  </style>
 </defs>
 <path style="fill:currentColor" class="ColorScheme-Text" d="m6.3477 3a0.25823 0.25823 0 0 0 -0.2539 0.2617v1.5684c-0.6493 0.1087-1.155 0.6144-1.2637 1.2637h-1.5684a0.25823 0.25823 0 1 0 0 0.5175h1.541v2.5821h-1.541a0.25823 0.25823 0 1 0 0 0.5156h1.541v2.582h-1.541a0.25823 0.25823 0 1 0 0 0.516h1.541v2.582h-1.541a0.25823 0.25823 0 1 0 0 0.517h1.5684c0.1087 0.65 0.6144 1.155 1.2637 1.264v1.568a0.25823 0.25823 0 1 0 0.5175 0v-1.541h2.5821v1.541a0.25823 0.25823 0 1 0 0.5156 0v-1.541h2.582v1.541a0.25823 0.25823 0 1 0 0.516 0v-1.541h2.582v1.541a0.25823 0.25823 0 1 0 0.517 0v-1.568c0.65-0.109 1.155-0.614 1.264-1.264h1.568a0.25823 0.25823 0 0 0 0.262 -0.261 0.25823 0.25823 0 0 0 -0.262 -0.256h-1.541v-2.582h1.541a0.25823 0.25823 0 0 0 0.262 -0.262 0.25823 0.25823 0 0 0 -0.262 -0.254h-1.541v-2.582h1.541a0.25823 0.25823 0 0 0 0.262 -0.2617 0.25823 0.25823 0 0 0 -0.262 -0.2539h-1.541v-2.5821h1.541a0.25823 0.25823 0 0 0 0.262 -0.2636 0.25823 0.25823 0 0 0 -0.262 -0.2539h-1.568c-0.109-0.6493-0.614-1.155-1.264-1.2637v-1.5684a0.25823 0.25823 0 0 0 -0.263 -0.2617 0.25823 0.25823 0 0 0 -0.254 0.2617v1.541h-2.582v-1.541a0.25823 0.25823 0 0 0 -0.262 -0.2617 0.25823 0.25823 0 0 0 -0.254 0.2617v1.541h-2.582v-1.541a0.25823 0.25823 0 0 0 -0.2617 -0.2617 0.25823 0.25823 0 0 0 -0.2539 0.2617v1.541h-2.5821v-1.541a0.25823 0.25823 0 0 0 -0.2636 -0.2617zm0.1523 9h9c0.277 0 0.5 0.223 0.5 0.5s-0.223 0.5-0.5 0.5h-9c-0.277 0-0.5-0.223-0.5-0.5s0.223-0.5 0.5-0.5zm0 3h9c0.277 0 0.5 0.223 0.5 0.5s-0.223 0.5-0.5 0.5h-9c-0.277 0-0.5-0.223-0.5-0.5s0.223-0.5 0.5-0.5z"/>
</svg>
