<svg xmlns="http://www.w3.org/2000/svg" width="22" height="22" version="1.1">
 <defs>
  <style id="current-color-scheme" type="text/css">
   .ColorScheme-Text { color:#E19235; } .ColorScheme-Highlight { color:#5294e2; }
  </style>
 </defs>
 <path style="fill:currentColor" class="ColorScheme-Highlight" d="M 4,4 C 2.892,4 2,4.892 2,6 V 14 C 2,15.108 2.892,16 4,16 H 2 V 17 C 2,17.554 2.892,18 4,18 H 18 C 19.108,18 20,17.554 20,17 V 16 H 18 C 19.108,16 20,15.108 20,14 V 6 C 20,4.892 19.108,4 18,4 Z M 10,5 H 12 V 5.5 H 10 Z M 5,6 H 17 V 14 H 5 Z M 9,16 H 13 V 16.5 H 9 Z"/>
</svg>
