<svg xmlns="http://www.w3.org/2000/svg" width="22" height="22" version="1.1">
 <defs>
  <style type="text/css">
   .ColorScheme-Text { color:#E19235; } .ColorScheme-Highlight { color:#5294e2; }
  </style>
 </defs>
 <path style="stroke-linejoin:round;stroke:currentColor;fill:none" class="ColorScheme-Text" d="m19.5 17v1.5c0 1-0 1-1 1-1 0-1-0-1-1l-0-2c-0-1 0-1 1-1h1.5"/>
 <path style="stroke-linejoin:round;stroke:currentColor;fill:none" class="ColorScheme-Text" d="m13 19.5 2.5 0v-4l-2.5-0m2.5 2h-2.5"/>
</svg>
