<svg xmlns="http://www.w3.org/2000/svg" width="22" height="22" version="1.1">
 <defs>
  <style id="current-color-scheme" type="text/css">
   .ColorScheme-Text { color:#E19235; } .ColorScheme-Highlight { color:#5294e2; }
  </style>
 </defs>
 <g transform="translate(-105 -743.36)">
  <path style="fill:currentColor" class="ColorScheme-Text" d="m116 746.36c-1 0-1 1-1 1v14s0 1 1 1h8c1 0 1-1 1-1v-14s0-1-1-1zm0.9998 2.0034h6v11h-6z"/>
  <path opacity=".3" style="fill:currentColor" class="ColorScheme-Text" d="m108.5 746.36c-0.27701 0-0.5 0.22301-0.5 0.50001v0.5l-2-0.002v-0.00026l-0.00001 14.502c0 0.277 0.22299 0.5 0.5 0.5h6c0.27699 0 0.5-0.223 0.5-0.5l0.00001-14.501-0.50001 0.002h-1.5v-0.5c0-0.277-0.22301-0.50001-0.5-0.50001z"/>
  <path style="fill:currentColor" class="ColorScheme-Text" d="m106 756.36-0.00001 5.5017c-0.00001 0.277 0.22299 0.5 0.5 0.5h6c0.27699 0 0.5-0.223 0.5-0.5l0.00001-5.5017z"/>
 </g>
</svg>
