<svg xmlns="http://www.w3.org/2000/svg" width="22" height="22" version="1.1">
 <defs>
  <style id="current-color-scheme" type="text/css">
   .ColorScheme-Text { color:#E19235; } .ColorScheme-Highlight { color:#5294e2; }
  </style>
 </defs>
 <path style="fill:currentColor" class="ColorScheme-Text" d="m5.166 3c-1.1667 0-1.166 1.1426-1.166 1.1426v13.714s-0.0007 1.143 1.166 1.143h11.668s1.166 0 1.166-1.143v-13.714c0-0.0004 0.001-1.143-1.166-1.143h-11.668zm5.834 2c2.761 0 5 2.2386 5 5 0 2.761-2.239 5-5 5h-5v-5c0-2.7614 2.2386-5 5-5zm0 2c-1.6569 0-3 1.3431-3 3 0 1.657 1.3431 3 3 3 1.657 0 3-1.343 3-3 0-1.6569-1.343-3-3-3z"/>
</svg>
