<svg xmlns="http://www.w3.org/2000/svg" width="22" height="22" version="1.1">
 <defs>
  <style id="current-color-scheme" type="text/css">
   .ColorScheme-Text { color:#E19235; } .ColorScheme-Highlight { color:#5294e2; }
  </style>
 </defs>
 <path style="fill:currentColor" class="ColorScheme-Text" d="m 11,5.0000002 a 1,1 0 0 0 -1,1 1,1 0 0 0 1,1 A 4,4 0 0 1 15,11 l -2,0 3,4 3,-4 -2,0 A 6,6 0 0 0 11,5.0000002 Z m -5.0000003,2 -3,3.9999998 2,0 A 6,6 0 0 0 11,17 1,1 0 0 0 12,16 1,1 0 0 0 11,15 4,4 0 0 1 7.0000002,11 l 2,0 z"/>
</svg>
