<svg xmlns="http://www.w3.org/2000/svg" width="22" height="22" version="1.1">
 <defs>
  <style id="current-color-scheme" type="text/css">
   .ColorScheme-Text { color:#E19235; } .ColorScheme-Highlight { color:#5294e2; }
  </style>
 </defs>
 <g transform="translate(-81.000012,-681.28997)">
  <path style="fill:currentColor" class="ColorScheme-Text" d="m 92.641732,685.28997 c -2.722529,0.10157 -5.231357,1.80685 -6.220533,4.56824 -1.302986,3.63742 0.515775,7.68743 4.095697,9.01134 2.71773,1.00506 5.656531,0.14514 7.483116,-1.90865 -1.308435,0.42914 -2.765217,0.45222 -4.157286,-0.0626 -3.324214,-1.22935 -5.028457,-4.97666 -3.818545,-8.35426 0.506669,-1.41443 1.452959,-2.51152 2.617551,-3.25409 z"/>
 </g>
</svg>
