/* XPM */
static char * title_1_active_xpm[] = {
"2 26 3 1",
" 	c None",
".	c #33b1ff",
"+	c #161616",
"..",
"++",
"++",
"++",
"++",
"++",
"++",
"++",
"++",
"++",
"++",
"++",
"++",
"++",
"++",
"++",
"++",
"++",
"++",
"++",
"++",
"++",
"++",
"++",
"++",
"++"};
