/* XPM */
static char * top_left_active_xpm[] = {
"2 26 4 1",
" 	c None",
".	c #7C9BB4",
"+	c #7C9BB4",
"@	c #1A2023",
" .",
".+",
".@",
".@",
".@",
".@",
".@",
".@",
".@",
".@",
".@",
".@",
".@",
".@",
".@",
".@",
".@",
".@",
".@",
".@",
".@",
".@",
".@",
".@",
".@",
".@"};
