<svg xmlns="http://www.w3.org/2000/svg" viewBox="0 0 16 16">
 <g transform="translate(0,-1036.3622)">
  <path d="m 4 1037.86 -4 3 4 3 -4 3.5 8 5 8 -5 -4 -3.5 4 -3 -4 -3 -4 3 z" style="fill:#78dca7;fill-opacity:1;color:#000"/>
 </g>
</svg>
