<svg xmlns="http://www.w3.org/2000/svg" viewBox="0 0 16 16">
 <g transform="translate(0,-1036.3622)">
  <path d="m 7.262 1042.36 0.022 0 c 0.195 0 0.353 0.178 0.353 0.4 l 0 3.6 c 0 0.222 -0.157 0.4 -0.353 0.4 l -0.022 0 c -0.195 0 -0.353 -0.178 -0.353 -0.4 l 0 -3.6 c 0 -0.222 0.157 -0.4 0.353 -0.4 z m -1.262 4.5 a 3 3.5 0 0 1 -3 3.5 3 3.5 0 0 1 -3 -3.5 3 3.5 0 0 1 3 -3.5 3 3.5 0 0 1 3 3.5 z m 4 -4.5 a 4 4 0 0 1 -4 4 4 4 0 0 1 -4 -4 4 4 0 0 1 4 -4 4 4 0 0 1 4 4 z m 4 1 a 3 3 0 0 1 -3 3 3 3 0 0 1 -3 -3 3 3 0 0 1 3 -3 3 3 0 0 1 3 3 z m 2 4 a 3 3 0 0 1 -3 3 3 3 0 0 1 -3 -3 3 3 0 0 1 3 -3 3 3 0 0 1 3 3 z m -13.09 -4.6 9.818 0 0 7.6 -9.818 0 z" style="fill:#78dca7;opacity:1;fill-opacity:1;stroke:none"/>
 </g>
</svg>
