<svg xmlns="http://www.w3.org/2000/svg" width="16" height="16" version="1.1">
 <defs>
  <style id="current-color-scheme" type="text/css">
   .ColorScheme-Text { color:#E19235; } .ColorScheme-Highlight { color:#5294e2; }
  </style>
 </defs>
 <path style="fill:currentColor" class="ColorScheme-Text" d="M 8.0351566,1.0004188 C 7.7564592,0.99368147 7.4798009,1.0683859 7.2382812,1.2140354 L 2.7617188,3.9175677 C 2.2907761,4.2019067 1.9999657,4.7279482 2,5.2966767 v 5.4070653 c -2e-7,0.352852 0.1224956,0.681282 0.3197545,0.953585 L 13.859375,4.6592447 C 13.731014,4.3547057 13.523051,4.0895022 13.238281,3.9175677 L 8.7617189,1.2123265 C 8.5413466,1.0794453 8.2911132,1.006849 8.0368306,1.0004188 Z m 5.9045764,3.858771 a 1.521892,1.5917107 0 0 1 0.01172,0.046141 c -0.0038,-0.015583 -0.0075,-0.030713 -0.01172,-0.046141 z M 2.4302455,11.807712 c 0.010934,0.01184 0.02218,0.02269 0.033483,0.03418 a 1.521892,1.5917107 0 0 1 -0.033483,-0.03418 z"/>
 <path style="opacity:0.3;fill:currentColor" class="ColorScheme-Text" d="M 13.869793,4.6541131 2.3092446,11.662078 a 1.521892,1.5917107 0 0 0 0.4518221,0.420395 l 4.4778667,2.704205 a 1.521892,1.5917107 0 0 0 1.5221332,0 L 13.238933,12.082473 A 1.521892,1.5917107 0 0 0 14,10.704395 V 5.2959859 A 1.521892,1.5917107 0 0 0 13.869793,4.6541131 Z"/>
</svg>
