<svg xmlns="http://www.w3.org/2000/svg" width="16" height="16" version="1.1">
 <defs>
  <style id="current-color-scheme" type="text/css">
   .ColorScheme-Text { color:#E19235; } .ColorScheme-Highlight { color:#5294e2; }
  </style>
 </defs>
 <path style="fill:currentColor" class="ColorScheme-Text" d="M 3.3477,0 A 0.25823,0.25823 0 0 0 3.0938,0.2617 V 1.8301 C 2.4445,1.9388 1.9388,2.4445 1.8301,3.0938 H 0.2617 A 0.25875,0.25875 0 1 0 0.2617,3.6113 H 1.8027 V 6.1934 H 0.2617 A 0.25823,0.25823 0 1 0 0.2617,6.709 H 1.8027 V 9.291 H 0.2617 A 0.25823,0.25823 0 1 0 0.2617,9.807 H 1.8027 V 12.389 H 0.2617 A 0.2585,0.2585 0 1 0 0.2617,12.906 H 1.8301 C 1.9388,13.556 2.4445,14.061 3.0938,14.17 V 15.738 A 0.25875,0.25875 0 1 0 3.6113,15.738 V 14.197 H 6.1934 V 15.738 A 0.25823,0.25823 0 1 0 6.709,15.738 V 14.197 H 9.291 V 15.738 A 0.25823,0.25823 0 1 0 9.807,15.738 V 14.197 H 12.389 V 15.738 A 0.2585,0.2585 0 1 0 12.906,15.738 V 14.17 C 13.556,14.061 14.061,13.556 14.17,12.906 H 15.738 A 0.25823,0.25823 0 0 0 16,12.645 0.25823,0.25823 0 0 0 15.738,12.389 H 14.197 V 9.807 H 15.738 A 0.25823,0.25823 0 0 0 16,9.545 0.25823,0.25823 0 0 0 15.738,9.291 H 14.197 V 6.709 H 15.738 A 0.25823,0.25823 0 0 0 16,6.4473 0.25823,0.25823 0 0 0 15.738,6.1934 H 14.197 V 3.6113 H 15.738 A 0.25823,0.25823 0 0 0 16,3.3477 0.25823,0.25823 0 0 0 15.738,3.0938 H 14.17 C 14.061,2.4445 13.556,1.9388 12.906,1.8301 V 0.2617 A 0.25823,0.25823 0 0 0 12.643,0 0.25823,0.25823 0 0 0 12.389,0.2617 V 1.8027 H 9.807 V 0.2617 A 0.25823,0.25823 0 0 0 9.545,0 0.25823,0.25823 0 0 0 9.291,0.2617 V 1.8027 H 6.709 V 0.2617 A 0.25823,0.25823 0 0 0 6.4473,0 0.25823,0.25823 0 0 0 6.1934,0.2617 V 1.8027 H 3.6113 V 0.2617 A 0.25823,0.25823 0 0 0 3.3477,0 Z M 3.5,9 H 12.5 C 12.777,9 13,9.223 13,9.5 13,9.777 12.777,10 12.5,10 H 3.5 C 3.223,10 3,9.777 3,9.5 3,9.223 3.223,9 3.5,9 Z M 3.5,12 H 12.5 C 12.777,12 13,12.223 13,12.5 13,12.777 12.777,13 12.5,13 H 3.5 C 3.223,13 3,12.777 3,12.5 3,12.223 3.223,12 3.5,12 Z"/>
</svg>
