<svg xmlns="http://www.w3.org/2000/svg" width="16" height="16" version="1.1">
 <defs>
  <style id="current-color-scheme" type="text/css">
   .ColorScheme-Text { color:#E19235; } .ColorScheme-Highlight { color:#5294e2; }
  </style>
 </defs>
 <path style="fill:currentColor" class="ColorScheme-Highlight" d="M 2,1 C 0.892,1 0,1.892 0,3 V 11 C 0,12.108 0.892,13 2,13 H 0 V 14 C 0,14.554 0.892,15 2,15 H 14 C 15.108,15 15.608,14.392 16,14 V 13 H 14 C 15.108,13 16,12.108 16,11 V 3 C 16,1.892 15.108,1 14,1 Z M 7,2 H 9 V 2.5 H 7 Z M 3,3 H 13 V 11 H 3 Z M 6,13 H 10 V 13.5 H 6 Z"/>
</svg>
