<svg xmlns="http://www.w3.org/2000/svg" width="16" height="16" version="1">
 <defs>
  <style id="current-color-scheme" type="text/css">
   .ColorScheme-Text { color:#E19235; } .ColorScheme-Highlight { color:#5294e2; }
  </style>
 </defs>
 <path style="fill:currentColor" class="ColorScheme-Text" d="M 9.2892,14.877 C 8.8989,14.641 8.6504,14.231 7.5671,12.041 6.9683,10.829 6.3976,9.752 6.2996,9.6488 6.1898,9.5324 5.2862,9.0521 3.9368,8.3932 1.2706,7.0921 1,6.8854 1,6.1477 1,5.8042 1.1679,5.4747 1.4311,5.3034 1.5215,5.2445 4.3093,4.2472 7.6258,3.0872 13.453,1.0492 13.67,0.97916 14.068,1.0035 14.412,1.0245 14.512,1.0595 14.678,1.2173 14.926,1.4539 15.037,1.7819 14.989,2.1326 14.937,2.5096 10.753,14.327 10.597,14.536 10.266,14.983 9.703,15.13 9.2883,14.878 Z"/>
 <circle style="fill:currentColor" class="ColorScheme-Text" cx="3.5" cy="12.5" r="1.5"/>
</svg>
