<svg xmlns="http://www.w3.org/2000/svg" width="16" height="16" version="1.1">
 <defs>
  <style id="current-color-scheme" type="text/css">
   .ColorScheme-Text { color:#E19235; } .ColorScheme-Highlight { color:#5294e2; }
  </style>
 </defs>
 <path style="fill:currentColor;fill-rule:evenodd" class="ColorScheme-Text" d="M 7.96,1 H 7.94 C 7.26,1 6.79,1.19 6.72,1.46 6.69,1.51 6.64,1.56 6.63,1.63 L 5.98,3.5 C 6.95,4.2 9.05,4.2 10.01,3.5 L 9.37,1.63 C 9.36,1.61 9.35,1.6 9.35,1.59 V 1.59 C 9.35,1.5 9.29,1.42 9.21,1.35 9.13,1.27 9.03,1.2 8.92,1.16 8.63,1.06 8.32,1 8,1 Z M 5.15,6.4 4.5,9 H 3.45 C 3.16,9 2.91,9.17 2.8,9.43 L 1.05,14.03 C 0.86,14.49 1.2,15 1.7,15 H 14.3 C 14.8,15 15.13,14.49 14.94,14.03 L 13.19,9.43 C 13.08,9.17 12.83,9 12.55,9 H 11.49 L 10.84,6.4 C 8.91,7.17 7.3,7.36 5.15,6.4 Z M 11.59,9.14 12.17,11.08 C 12.26,11.39 12.13,11.71 11.86,11.88 10.76,12.55 9.36,12.98 7.97,13 6.58,13.01 5.18,12.61 4.1,11.86 3.85,11.68 3.74,11.37 3.83,11.08 L 4.38,9.22 C 4.8334,9.492 6.2587,9.9852 7.9889,10 9.121,10.01 10.384,9.8678 11.59,9.14 Z"/>
</svg>
