<svg xmlns="http://www.w3.org/2000/svg" style="isolation:isolate" width="16" height="16" version="1.1" viewBox="0 0 16 16">
 <defs>
  <style id="current-color-scheme" type="text/css">
   .ColorScheme-Text { color:#ffffff; } .ColorScheme-Highlight { color:#5294e2; }
  </style>
  <linearGradient id="arrongin" x1="0%" x2="0%" y1="0%" y2="100%">
   <stop offset="0%" style="stop-color:#dd9b44; stop-opacity:1"/>
   <stop offset="100%" style="stop-color:#ad6c16; stop-opacity:1"/>
  </linearGradient>
  <linearGradient id="aurora" x1="0%" x2="0%" y1="0%" y2="100%">
   <stop offset="0%" style="stop-color:#09D4DF; stop-opacity:1"/>
   <stop offset="100%" style="stop-color:#9269F4; stop-opacity:1"/>
  </linearGradient>
  <linearGradient id="fitdance" x1="0%" x2="0%" y1="0%" y2="100%">
   <stop offset="0%" style="stop-color:#1AD6AB; stop-opacity:1"/>
   <stop offset="100%" style="stop-color:#329DB6; stop-opacity:1"/>
  </linearGradient>
  <linearGradient id="oomox" x1="0%" x2="0%" y1="0%" y2="100%">
   <stop offset="0%" style="stop-color:#efefe7; stop-opacity:1"/>
   <stop offset="100%" style="stop-color:#8f8f8b; stop-opacity:1"/>
  </linearGradient>
  <linearGradient id="rainblue" x1="0%" x2="0%" y1="0%" y2="100%">
   <stop offset="0%" style="stop-color:#00F260; stop-opacity:1"/>
   <stop offset="100%" style="stop-color:#0575E6; stop-opacity:1"/>
  </linearGradient>
  <linearGradient id="sunrise" x1="0%" x2="0%" y1="0%" y2="100%">
   <stop offset="0%" style="stop-color: #FF8501; stop-opacity:1"/>
   <stop offset="100%" style="stop-color: #FFCB01; stop-opacity:1"/>
  </linearGradient>
  <linearGradient id="telinkrin" x1="0%" x2="0%" y1="0%" y2="100%">
   <stop offset="0%" style="stop-color: #b2ced6; stop-opacity:1"/>
   <stop offset="100%" style="stop-color: #6da5b7; stop-opacity:1"/>
  </linearGradient>
  <linearGradient id="60spsycho" x1="0%" x2="0%" y1="0%" y2="100%">
   <stop offset="0%" style="stop-color: #df5940; stop-opacity:1"/>
   <stop offset="25%" style="stop-color: #d8d15f; stop-opacity:1"/>
   <stop offset="50%" style="stop-color: #e9882a; stop-opacity:1"/>
   <stop offset="100%" style="stop-color: #279362; stop-opacity:1"/>
  </linearGradient>
  <linearGradient id="90ssummer" x1="0%" x2="0%" y1="0%" y2="100%">
   <stop offset="0%" style="stop-color: #f618c7; stop-opacity:1"/>
   <stop offset="20%" style="stop-color: #94ffab; stop-opacity:1"/>
   <stop offset="50%" style="stop-color: #fbfd54; stop-opacity:1"/>
   <stop offset="100%" style="stop-color: #0f83ae; stop-opacity:1"/>
  </linearGradient>
  <linearGradient id="cyberneon" x1="0%" x2="0%" y1="0%" y2="100%">
    <stop offset="0" style="stop-color:#0abdc6; stop-opacity:1"/>
    <stop offset="1" style="stop-color:#ea00d9; stop-opacity:1"/>
  </linearGradient>
  <clipPath id="_clipPath_5qvHi2TTBvH9qgJexxwNn4QOa8I3aovi">
   <rect width="16" height="16"/>
  </clipPath>
 </defs>
 <g clip-path="url(#_clipPath_5qvHi2TTBvH9qgJexxwNn4QOa8I3aovi)">
  <path d="M 12.04 14.665 C 11.97 14.665 11.896 14.645 11.826 14.616 L 7.997 12.607 L 4.168 14.616 C 4.015 14.692 3.832 14.68 3.691 14.583 C 3.547 14.48 3.485 14.307 3.506 14.143 L 4.238 9.877 L 1.134 6.855 C 1.011 6.732 0.969 6.559 1.023 6.394 C 1.072 6.23 1.216 6.11 1.389 6.09 L 5.675 5.468 L 7.594 1.59 C 7.676 1.438 7.828 1.335 8.001 1.335 C 8.174 1.335 8.326 1.425 8.409 1.59 L 10.327 5.468 L 14.613 6.09 C 14.786 6.11 14.918 6.234 14.98 6.394 C 15.029 6.559 14.988 6.74 14.868 6.855 L 11.744 9.865 L 12.476 14.13 C 12.505 14.303 12.435 14.468 12.291 14.571 C 12.234 14.632 12.143 14.665 12.04 14.665 L 12.04 14.665 Z M 8.001 11.631 C 8.071 11.631 8.145 11.652 8.215 11.681 L 11.451 13.373 L 10.838 9.779 C 10.817 9.634 10.858 9.482 10.97 9.379 L 13.584 6.827 L 9.969 6.308 C 9.825 6.287 9.693 6.197 9.632 6.065 L 8.018 2.788 L 6.404 6.065 C 6.342 6.197 6.21 6.291 6.066 6.308 L 2.452 6.827 L 5.066 9.379 C 5.169 9.482 5.218 9.634 5.198 9.779 L 4.584 13.373 L 7.82 11.681 C 7.857 11.652 7.927 11.631 8.001 11.631 L 8.001 11.631 Z M 6.844 6.448 C 6.816 6.448 6.774 6.44 6.741 6.427 C 6.68 6.398 6.63 6.357 6.61 6.296 C 6.589 6.234 6.589 6.164 6.61 6.102 L 7.639 3.722 C 7.68 3.632 7.771 3.57 7.865 3.57 C 7.894 3.57 7.935 3.578 7.968 3.591 C 8.03 3.62 8.071 3.661 8.1 3.722 C 8.121 3.784 8.121 3.854 8.1 3.916 L 7.071 6.296 C 7.042 6.386 6.947 6.448 6.844 6.448 Z M 5.704 6.971 C 5.58 6.971 5.478 6.88 5.461 6.757 C 5.453 6.695 5.469 6.625 5.51 6.571 C 5.552 6.518 5.613 6.489 5.675 6.481 L 6.021 6.44 L 6.05 6.44 C 6.173 6.44 6.276 6.53 6.293 6.654 C 6.301 6.716 6.284 6.785 6.243 6.839 C 6.202 6.888 6.14 6.921 6.079 6.93 L 5.733 6.971 L 5.704 6.971 Z M 3.337 7.284 C 3.213 7.284 3.11 7.193 3.094 7.07 C 3.086 7.008 3.102 6.938 3.143 6.884 C 3.184 6.835 3.246 6.802 3.308 6.794 L 5.185 6.551 L 5.214 6.551 C 5.338 6.551 5.44 6.641 5.457 6.765 C 5.478 6.897 5.375 7.02 5.243 7.041 L 3.366 7.284 L 3.337 7.284 Z" style="fill:currentColor" class="ColorScheme-Text"/>
 </g>
</svg>
