<svg xmlns="http://www.w3.org/2000/svg" width="16" height="16" version="1.1">
<defs>
  <style id="current-color-scheme" type="text/css">
   .ColorScheme-Text { color:#ffffff; } .ColorScheme-Highlight { color:#5294e2; }
  </style>
  <linearGradient id="arrongin" x1="0%" x2="0%" y1="0%" y2="100%">
   <stop offset="0%" style="stop-color:#dd9b44; stop-opacity:1"/>
   <stop offset="100%" style="stop-color:#ad6c16; stop-opacity:1"/>
  </linearGradient>
  <linearGradient id="aurora" x1="0%" x2="0%" y1="0%" y2="100%">
   <stop offset="0%" style="stop-color:#09D4DF; stop-opacity:1"/>
   <stop offset="100%" style="stop-color:#9269F4; stop-opacity:1"/>
  </linearGradient>
  <linearGradient id="fitdance" x1="0%" x2="0%" y1="0%" y2="100%">
   <stop offset="0%" style="stop-color:#1AD6AB; stop-opacity:1"/>
   <stop offset="100%" style="stop-color:#329DB6; stop-opacity:1"/>
  </linearGradient>
  <linearGradient id="oomox" x1="0%" x2="0%" y1="0%" y2="100%">
   <stop offset="0%" style="stop-color:#efefe7; stop-opacity:1"/>
   <stop offset="100%" style="stop-color:#8f8f8b; stop-opacity:1"/>
  </linearGradient>
  <linearGradient id="rainblue" x1="0%" x2="0%" y1="0%" y2="100%">
   <stop offset="0%" style="stop-color:#00F260; stop-opacity:1"/>
   <stop offset="100%" style="stop-color:#0575E6; stop-opacity:1"/>
  </linearGradient>
  <linearGradient id="sunrise" x1="0%" x2="0%" y1="0%" y2="100%">
   <stop offset="0%" style="stop-color: #FF8501; stop-opacity:1"/>
   <stop offset="100%" style="stop-color: #FFCB01; stop-opacity:1"/>
  </linearGradient>
  <linearGradient id="telinkrin" x1="0%" x2="0%" y1="0%" y2="100%">
   <stop offset="0%" style="stop-color: #b2ced6; stop-opacity:1"/>
   <stop offset="100%" style="stop-color: #6da5b7; stop-opacity:1"/>
  </linearGradient>
  <linearGradient id="60spsycho" x1="0%" x2="0%" y1="0%" y2="100%">
   <stop offset="0%" style="stop-color: #df5940; stop-opacity:1"/>
   <stop offset="25%" style="stop-color: #d8d15f; stop-opacity:1"/>
   <stop offset="50%" style="stop-color: #e9882a; stop-opacity:1"/>
   <stop offset="100%" style="stop-color: #279362; stop-opacity:1"/>
  </linearGradient>
  <linearGradient id="90ssummer" x1="0%" x2="0%" y1="0%" y2="100%">
   <stop offset="0%" style="stop-color: #f618c7; stop-opacity:1"/>
   <stop offset="20%" style="stop-color: #94ffab; stop-opacity:1"/>
   <stop offset="50%" style="stop-color: #fbfd54; stop-opacity:1"/>
   <stop offset="100%" style="stop-color: #0f83ae; stop-opacity:1"/>
  </linearGradient>
  <linearGradient id="cyberneon" x1="0%" x2="0%" y1="0%" y2="100%">
    <stop offset="0" style="stop-color:#0abdc6; stop-opacity:1"/>
    <stop offset="1" style="stop-color:#ea00d9; stop-opacity:1"/>
  </linearGradient>
 </defs>
 <g transform="translate(-11,111.6378)">
  <path d="m 15.114286,-100.98326 -0.4,1.109094 c 1.036363,0.418182 2.000001,0.636364 2.890909,0.654546 l 0,2.581818 1.072728,0 0,-2.636364 c 1.127271,-0.145454 1.927273,-0.581818 2.381818,-1.254544 0.327272,-0.47273 0.454545,-0.81818 0.454545,-1.56364 0,-0.8 -0.727273,-1.47273 -1.327273,-1.76363 -0.70909,-0.34546 -1.654546,-0.67273 -2.436363,-0.92728 -0.545454,-0.18182 -1.309091,-0.47272 -1.309091,-1.09091 0,-0.23636 0.07273,-0.43636 0.218182,-0.63636 0.399999,-0.56364 1.054546,-0.67273 2.090909,-0.67273 0.472727,0 1.109091,0.10909 1.909091,0.32728 l 0.363636,-1.1091 c -0.181818,-0.0545 -0.309091,-0.10909 -0.4,-0.12727 l -0.2,-0.0545 c -0.163636,-0.0546 -0.472728,-0.12728 -0.690909,-0.12728 -0.181818,0 -0.400001,-0.0545 -0.581818,-0.0545 l -0.472727,0 0,-2.30909 -1.072728,0 0,2.41818 c -0.618181,0.10909 -1.109091,0.29091 -1.490909,0.52727 -0.563636,0.36364 -1.181818,1 -1.181818,1.94546 0,0.69091 0.254546,1.23636 0.781818,1.61818 0.236363,0.18182 0.509091,0.34545 0.8,0.49091 0.563636,0.29091 1.218182,0.41818 1.818182,0.63636 0.70909,0.27273 1.581818,0.36364 1.581818,1.32727 0,0.29091 -0.109091,0.54546 -0.327273,0.76364 -0.436363,0.43636 -1.09091,0.54545 -1.945454,0.54545 -1.145454,0 -1.563638,-0.21818 -2.527273,-0.61818" style="fill:currentColor" class="ColorScheme-Text"/>
 </g>
</svg>
