<svg xmlns="http://www.w3.org/2000/svg" style="isolation:isolate" width="16" height="16" viewBox="0 0 16 16">
 <defs>
  <style id="current-color-scheme" type="text/css">
   .ColorScheme-Text { color:#ffffff; } .ColorScheme-Highlight { color:#5294e2; }
  </style>
  <linearGradient id="arrongin" x1="0%" x2="0%" y1="0%" y2="100%">
   <stop offset="0%" style="stop-color:#dd9b44; stop-opacity:1"/>
   <stop offset="100%" style="stop-color:#ad6c16; stop-opacity:1"/>
  </linearGradient>
  <linearGradient id="aurora" x1="0%" x2="0%" y1="0%" y2="100%">
   <stop offset="0%" style="stop-color:#09D4DF; stop-opacity:1"/>
   <stop offset="100%" style="stop-color:#9269F4; stop-opacity:1"/>
  </linearGradient>
  <linearGradient id="fitdance" x1="0%" x2="0%" y1="0%" y2="100%">
   <stop offset="0%" style="stop-color:#1AD6AB; stop-opacity:1"/>
   <stop offset="100%" style="stop-color:#329DB6; stop-opacity:1"/>
  </linearGradient>
  <linearGradient id="oomox" x1="0%" x2="0%" y1="0%" y2="100%">
   <stop offset="0%" style="stop-color:#efefe7; stop-opacity:1"/>
   <stop offset="100%" style="stop-color:#8f8f8b; stop-opacity:1"/>
  </linearGradient>
  <linearGradient id="rainblue" x1="0%" x2="0%" y1="0%" y2="100%">
   <stop offset="0%" style="stop-color:#00F260; stop-opacity:1"/>
   <stop offset="100%" style="stop-color:#0575E6; stop-opacity:1"/>
  </linearGradient>
  <linearGradient id="sunrise" x1="0%" x2="0%" y1="0%" y2="100%">
   <stop offset="0%" style="stop-color: #FF8501; stop-opacity:1"/>
   <stop offset="100%" style="stop-color: #FFCB01; stop-opacity:1"/>
  </linearGradient>
  <linearGradient id="telinkrin" x1="0%" x2="0%" y1="0%" y2="100%">
   <stop offset="0%" style="stop-color: #b2ced6; stop-opacity:1"/>
   <stop offset="100%" style="stop-color: #6da5b7; stop-opacity:1"/>
  </linearGradient>
  <linearGradient id="60spsycho" x1="0%" x2="0%" y1="0%" y2="100%">
   <stop offset="0%" style="stop-color: #df5940; stop-opacity:1"/>
   <stop offset="25%" style="stop-color: #d8d15f; stop-opacity:1"/>
   <stop offset="50%" style="stop-color: #e9882a; stop-opacity:1"/>
   <stop offset="100%" style="stop-color: #279362; stop-opacity:1"/>
  </linearGradient>
  <linearGradient id="90ssummer" x1="0%" x2="0%" y1="0%" y2="100%">
   <stop offset="0%" style="stop-color: #f618c7; stop-opacity:1"/>
   <stop offset="20%" style="stop-color: #94ffab; stop-opacity:1"/>
   <stop offset="50%" style="stop-color: #fbfd54; stop-opacity:1"/>
   <stop offset="100%" style="stop-color: #0f83ae; stop-opacity:1"/>
  </linearGradient>
  <linearGradient id="cyberneon" x1="0%" x2="0%" y1="0%" y2="100%">
    <stop offset="0" style="stop-color:#0abdc6; stop-opacity:1"/>
    <stop offset="1" style="stop-color:#ea00d9; stop-opacity:1"/>
  </linearGradient>
  <clipPath id="_clipPath_f9ylGCfekRIxqDNTz8rRCOMkjMBLXX4s">
   <rect width="16" height="16"/>
  </clipPath>
 </defs>
 <g clip-path="url(#_clipPath_f9ylGCfekRIxqDNTz8rRCOMkjMBLXX4s)">
  <rect style="fill:currentColor" class="ColorScheme-Text" fill-opacity="0" width="16" height="16"/>
  <path style="fill:currentColor" class="ColorScheme-Text" fill-rule="evenodd" d="M 9.498 14.5 L 4.82 14.5 C 4.544 14.5 4.32 14.276 4.32 14 L 4.32 10.082 C 4.312 10.028 4.312 9.974 4.32 9.92 L 4.32 6.082 C 4.312 6.028 4.312 5.974 4.32 5.92 L 4.32 4.5 L 4.32 4.5 L 5.32 4.5 L 5.32 5.5 L 9.498 5.5 C 9.7 4.831 10.321 4.344 11.055 4.344 C 11.952 4.344 12.68 5.072 12.68 5.969 C 12.68 6.866 11.952 7.594 11.055 7.594 C 10.344 7.594 9.739 7.136 9.519 6.5 L 9.519 6.5 L 5.32 6.5 L 5.32 9.5 L 9.498 9.5 L 9.498 9.5 C 9.7 8.831 10.321 8.344 11.055 8.344 C 11.952 8.344 12.68 9.072 12.68 9.969 C 12.68 10.866 11.952 11.594 11.055 11.594 C 10.344 11.594 9.739 11.136 9.519 10.5 L 5.32 10.5 L 5.32 13.5 L 9.519 13.5 C 9.739 12.864 10.344 12.406 11.055 12.406 C 11.952 12.406 12.68 13.134 12.68 14.031 C 12.68 14.928 11.952 15.656 11.055 15.656 C 10.321 15.656 9.7 15.169 9.498 14.5 Z M 4.32 0.5 L 4.32 1.5 L 3.32 1.5 L 3.32 2.5 L 4.32 2.5 L 4.32 3.5 L 5.32 3.5 L 5.32 2.5 L 6.32 2.5 L 6.32 1.5 L 5.32 1.5 L 5.32 0.5 L 4.32 0.5 L 4.32 0.5 L 4.32 0.5 L 4.32 0.5 Z"/>
 </g>
</svg>
