<svg xmlns="http://www.w3.org/2000/svg" style="isolation:isolate" width="16" height="16" viewBox="0 0 16 16">
 <defs>
  <style id="current-color-scheme" type="text/css">
   .ColorScheme-Text { color:#ffffff; } .ColorScheme-Highlight { color:#5294e2; }
  </style>
  <linearGradient id="arrongin" x1="0%" x2="0%" y1="0%" y2="100%">
   <stop offset="0%" style="stop-color:#dd9b44; stop-opacity:1"/>
   <stop offset="100%" style="stop-color:#ad6c16; stop-opacity:1"/>
  </linearGradient>
  <linearGradient id="aurora" x1="0%" x2="0%" y1="0%" y2="100%">
   <stop offset="0%" style="stop-color:#09D4DF; stop-opacity:1"/>
   <stop offset="100%" style="stop-color:#9269F4; stop-opacity:1"/>
  </linearGradient>
  <linearGradient id="fitdance" x1="0%" x2="0%" y1="0%" y2="100%">
   <stop offset="0%" style="stop-color:#1AD6AB; stop-opacity:1"/>
   <stop offset="100%" style="stop-color:#329DB6; stop-opacity:1"/>
  </linearGradient>
  <linearGradient id="oomox" x1="0%" x2="0%" y1="0%" y2="100%">
   <stop offset="0%" style="stop-color:#efefe7; stop-opacity:1"/>
   <stop offset="100%" style="stop-color:#8f8f8b; stop-opacity:1"/>
  </linearGradient>
  <linearGradient id="rainblue" x1="0%" x2="0%" y1="0%" y2="100%">
   <stop offset="0%" style="stop-color:#00F260; stop-opacity:1"/>
   <stop offset="100%" style="stop-color:#0575E6; stop-opacity:1"/>
  </linearGradient>
  <linearGradient id="sunrise" x1="0%" x2="0%" y1="0%" y2="100%">
   <stop offset="0%" style="stop-color: #FF8501; stop-opacity:1"/>
   <stop offset="100%" style="stop-color: #FFCB01; stop-opacity:1"/>
  </linearGradient>
  <linearGradient id="telinkrin" x1="0%" x2="0%" y1="0%" y2="100%">
   <stop offset="0%" style="stop-color: #b2ced6; stop-opacity:1"/>
   <stop offset="100%" style="stop-color: #6da5b7; stop-opacity:1"/>
  </linearGradient>
  <linearGradient id="60spsycho" x1="0%" x2="0%" y1="0%" y2="100%">
   <stop offset="0%" style="stop-color: #df5940; stop-opacity:1"/>
   <stop offset="25%" style="stop-color: #d8d15f; stop-opacity:1"/>
   <stop offset="50%" style="stop-color: #e9882a; stop-opacity:1"/>
   <stop offset="100%" style="stop-color: #279362; stop-opacity:1"/>
  </linearGradient>
  <linearGradient id="90ssummer" x1="0%" x2="0%" y1="0%" y2="100%">
   <stop offset="0%" style="stop-color: #f618c7; stop-opacity:1"/>
   <stop offset="20%" style="stop-color: #94ffab; stop-opacity:1"/>
   <stop offset="50%" style="stop-color: #fbfd54; stop-opacity:1"/>
   <stop offset="100%" style="stop-color: #0f83ae; stop-opacity:1"/>
  </linearGradient>
  <linearGradient id="cyberneon" x1="0%" x2="0%" y1="0%" y2="100%">
    <stop offset="0" style="stop-color:#0abdc6; stop-opacity:1"/>
    <stop offset="1" style="stop-color:#ea00d9; stop-opacity:1"/>
  </linearGradient>
 </defs>
 <path style="fill:currentColor" class="ColorScheme-Text" fill-rule="evenodd" d="M 8.286 7.429 C 7.812 7.429 7.429 7.812 7.429 8.286 C 7.429 8.759 7.812 9.143 8.286 9.143 C 8.759 9.143 9.143 8.759 9.143 8.286 C 9.143 7.812 8.759 7.429 8.286 7.429 L 8.286 7.429 L 8.286 7.429 L 8.286 7.429 L 8.286 7.429 L 8.286 7.429 L 8.286 7.429 L 8.286 7.429 L 8.286 7.429 L 8.286 7.429 L 8.286 7.429 L 8.286 7.429 L 8.286 7.429 L 8.286 7.429 L 8.286 7.429 L 8.286 7.429 L 8.286 7.429 Z M 10.571 7.429 C 10.098 7.429 9.714 7.812 9.714 8.286 C 9.714 8.759 10.098 9.143 10.571 9.143 C 11.045 9.143 11.429 8.759 11.429 8.286 C 11.429 7.812 11.045 7.429 10.571 7.429 L 10.571 7.429 L 10.571 7.429 L 10.571 7.429 L 10.571 7.429 L 10.571 7.429 L 10.571 7.429 L 10.571 7.429 L 10.571 7.429 L 10.571 7.429 L 10.571 7.429 L 10.571 7.429 L 10.571 7.429 L 10.571 7.429 L 10.571 7.429 Z M 12.857 7.429 C 12.384 7.429 12 7.812 12 8.286 C 12 8.759 12.384 9.143 12.857 9.143 C 13.331 9.143 13.714 8.759 13.714 8.286 C 13.714 7.812 13.331 7.429 12.857 7.429 L 12.857 7.429 L 12.857 7.429 L 12.857 7.429 L 12.857 7.429 L 12.857 7.429 L 12.857 7.429 L 12.857 7.429 L 12.857 7.429 L 12.857 7.429 L 12.857 7.429 L 12.857 7.429 L 12.857 7.429 Z M 8.286 9.714 C 7.812 9.714 7.429 10.098 7.429 10.571 C 7.429 11.045 7.812 11.429 8.286 11.429 C 8.759 11.429 9.143 11.045 9.143 10.571 C 9.143 10.098 8.759 9.714 8.286 9.714 L 8.286 9.714 L 8.286 9.714 L 8.286 9.714 L 8.286 9.714 L 8.286 9.714 L 8.286 9.714 L 8.286 9.714 L 8.286 9.714 L 8.286 9.714 L 8.286 9.714 Z M 10.571 9.714 C 10.098 9.714 9.714 10.098 9.714 10.571 C 9.714 11.045 10.098 11.429 10.571 11.429 C 11.045 11.429 11.429 11.045 11.429 10.571 C 11.429 10.098 11.045 9.714 10.571 9.714 L 10.571 9.714 L 10.571 9.714 L 10.571 9.714 L 10.571 9.714 L 10.571 9.714 L 10.571 9.714 L 10.571 9.714 L 10.571 9.714 Z M 12.857 9.714 C 12.384 9.714 12 10.098 12 10.571 C 12 11.045 12.384 11.429 12.857 11.429 C 13.331 11.429 13.714 11.045 13.714 10.571 C 13.714 10.098 13.331 9.714 12.857 9.714 L 12.857 9.714 L 12.857 9.714 L 12.857 9.714 L 12.857 9.714 L 12.857 9.714 L 12.857 9.714 Z M 8.286 12 C 7.812 12 7.429 12.384 7.429 12.857 C 7.429 13.331 7.812 13.714 8.286 13.714 C 8.759 13.714 9.143 13.331 9.143 12.857 C 9.143 12.384 8.759 12 8.286 12 L 8.286 12 L 8.286 12 L 8.286 12 L 8.286 12 Z M 10.571 12 C 10.098 12 9.714 12.384 9.714 12.857 C 9.714 13.331 10.098 13.714 10.571 13.714 C 11.045 13.714 11.429 13.331 11.429 12.857 C 11.429 12.384 11.045 12 10.571 12 L 10.571 12 L 10.571 12 Z M 8 1.143 L 0 6.857 L 1.143 6.857 L 1.143 14.29 C 1.143 14.569 1.35 14.857 1.652 14.857 L 14.348 14.857 C 14.65 14.857 14.859 14.569 14.857 14.29 L 14.857 6.857 L 16 6.857 L 8 1.143 L 8 1.143 L 8 1.143 L 8 1.143 L 8 1.143 L 8 1.143 L 8 1.143 L 8 1.143 L 8 1.143 L 8 1.143 L 8 1.143 L 8 1.143 L 8 1.143 L 8 1.143 L 8 1.143 L 8 1.143 L 8 1.143 Z M 12.857 12 C 12.384 12 12 12.384 12 12.857 C 12 13.331 12.384 13.714 12.857 13.714 C 13.331 13.714 13.714 13.331 13.714 12.857 C 13.714 12.384 13.331 12 12.857 12 Z"/>
</svg>
