<svg xmlns="http://www.w3.org/2000/svg" width="16" height="16" version="1.1">
<defs>
  <style id="current-color-scheme" type="text/css">
   .ColorScheme-Text { color:#ffffff; } .ColorScheme-Highlight { color:#5294e2; }
  </style>
  <linearGradient id="arrongin" x1="0%" x2="0%" y1="0%" y2="100%">
   <stop offset="0%" style="stop-color:#dd9b44; stop-opacity:1"/>
   <stop offset="100%" style="stop-color:#ad6c16; stop-opacity:1"/>
  </linearGradient>
  <linearGradient id="aurora" x1="0%" x2="0%" y1="0%" y2="100%">
   <stop offset="0%" style="stop-color:#09D4DF; stop-opacity:1"/>
   <stop offset="100%" style="stop-color:#9269F4; stop-opacity:1"/>
  </linearGradient>
  <linearGradient id="fitdance" x1="0%" x2="0%" y1="0%" y2="100%">
   <stop offset="0%" style="stop-color:#1AD6AB; stop-opacity:1"/>
   <stop offset="100%" style="stop-color:#329DB6; stop-opacity:1"/>
  </linearGradient>
  <linearGradient id="oomox" x1="0%" x2="0%" y1="0%" y2="100%">
   <stop offset="0%" style="stop-color:#efefe7; stop-opacity:1"/>
   <stop offset="100%" style="stop-color:#8f8f8b; stop-opacity:1"/>
  </linearGradient>
  <linearGradient id="rainblue" x1="0%" x2="0%" y1="0%" y2="100%">
   <stop offset="0%" style="stop-color:#00F260; stop-opacity:1"/>
   <stop offset="100%" style="stop-color:#0575E6; stop-opacity:1"/>
  </linearGradient>
  <linearGradient id="sunrise" x1="0%" x2="0%" y1="0%" y2="100%">
   <stop offset="0%" style="stop-color: #FF8501; stop-opacity:1"/>
   <stop offset="100%" style="stop-color: #FFCB01; stop-opacity:1"/>
  </linearGradient>
  <linearGradient id="telinkrin" x1="0%" x2="0%" y1="0%" y2="100%">
   <stop offset="0%" style="stop-color: #b2ced6; stop-opacity:1"/>
   <stop offset="100%" style="stop-color: #6da5b7; stop-opacity:1"/>
  </linearGradient>
  <linearGradient id="60spsycho" x1="0%" x2="0%" y1="0%" y2="100%">
   <stop offset="0%" style="stop-color: #df5940; stop-opacity:1"/>
   <stop offset="25%" style="stop-color: #d8d15f; stop-opacity:1"/>
   <stop offset="50%" style="stop-color: #e9882a; stop-opacity:1"/>
   <stop offset="100%" style="stop-color: #279362; stop-opacity:1"/>
  </linearGradient>
  <linearGradient id="90ssummer" x1="0%" x2="0%" y1="0%" y2="100%">
   <stop offset="0%" style="stop-color: #f618c7; stop-opacity:1"/>
   <stop offset="20%" style="stop-color: #94ffab; stop-opacity:1"/>
   <stop offset="50%" style="stop-color: #fbfd54; stop-opacity:1"/>
   <stop offset="100%" style="stop-color: #0f83ae; stop-opacity:1"/>
  </linearGradient>
  <linearGradient id="cyberneon" x1="0%" x2="0%" y1="0%" y2="100%">
    <stop offset="0" style="stop-color:#0abdc6; stop-opacity:1"/>
    <stop offset="1" style="stop-color:#ea00d9; stop-opacity:1"/>
  </linearGradient>
 </defs>
 <g transform="matrix(0.35433441,0,0,0.35433441,-3.9246292,-85.060129)" style="fill:currentColor" class="ColorScheme-Text">
  <path style="solid-color:#ffffff;fill:currentColor" d="m 31.112276,241.46735 c -0.799238,-3.7e-4 -1.403608,0.5039 -1.756981,0.97667 -0.353372,0.47277 -0.588512,1.00401 -0.800976,1.62263 -0.424928,1.23724 -0.736768,2.84123 -0.992177,4.74901 -0.09113,0.68066 -0.127028,1.55565 -0.201536,2.30475 -1.193456,-0.56707 -2.447174,-1.19527 -3.508793,-1.63296 -1.7795,-0.73365 -3.32568,-1.26796 -4.60949,-1.51927 -0.641905,-0.12566 -1.212167,-0.1882 -1.798321,-0.11886 -0.586153,0.0694 -1.326345,0.34136 -1.725975,1.03352 l -2.976531,5.15209 c -0.399629,0.69215 -0.26403,1.46789 -0.03101,2.01019 0.233022,0.5423 0.572743,1.01069 1.002513,1.50377 0.859538,0.98615 2.097369,2.05548 3.62248,3.22974 0.850169,0.65459 1.953919,1.37879 2.961028,2.07737 -0.467598,0.34018 -1.0576,0.71108 -1.483098,1.03869 -1.524808,1.17402 -2.757927,2.24376 -3.617312,3.22974 -0.429693,0.49298 -0.774687,0.96155 -1.00768,1.50377 -0.232993,0.54222 -0.368613,1.31807 0.03101,2.01019 l 2.976532,5.15209 c 0.399596,0.69212 1.139892,0.96418 1.725975,1.03352 0.586082,0.0694 1.161696,10e-4 1.803488,-0.12403 1.283585,-0.25126 2.825175,-0.78059 4.604322,-1.5141 0.612514,-0.25253 1.365493,-0.6426 2.025695,-0.9405 0.07108,0.71237 0.104929,1.55166 0.191201,2.20139 0.253356,1.90805 0.568582,3.51133 0.992177,4.74902 0.211797,0.61884 0.437771,1.14948 0.790641,1.62262 0.35287,0.47315 0.957739,0.97622 1.75698,0.97667 l 5.953063,0.005 c 0.799235,3.8e-4 1.403605,-0.50391 1.756981,-0.97667 0.353377,-0.47276 0.58851,-1.004 0.800976,-1.62263 0.424932,-1.23724 0.736764,-2.83606 0.992177,-4.74384 0.08249,-0.61617 0.117167,-1.41487 0.186034,-2.08771 0.15143,0.064 0.342513,0.16619 0.490922,0.22737 1.779497,0.73366 3.32051,1.2628 4.604321,1.51411 0.641904,0.12566 1.217335,0.19337 1.803487,0.12402 0.586154,-0.0694 1.326347,-0.34136 1.725975,-1.03352 l 2.976531,-5.15725 c 0.399636,-0.69216 0.264031,-1.4679 0.03101,-2.01019 -0.233022,-0.5423 -0.572743,-1.00553 -1.002512,-1.4986 -0.85954,-0.98615 -2.09737,-2.06066 -3.622481,-3.23492 -0.184069,-0.14172 -0.44853,-0.30533 -0.64078,-0.44958 0.689936,-0.49135 1.506808,-1.01077 2.113544,-1.47793 1.524809,-1.17403 2.757924,-2.24892 3.617311,-3.23491 0.429695,-0.49299 0.774689,-0.95637 1.007682,-1.4986 0.232989,-0.54223 0.368584,-1.31807 -0.03101,-2.01019 l -2.976531,-5.15209 c -0.399615,-0.69212 -1.139898,-0.96419 -1.725975,-1.03351 -0.586078,-0.0694 -1.1617,-0.007 -1.80349,0.11885 -1.283576,0.25128 -2.825176,0.78575 -4.604321,1.51927 -0.587768,0.24233 -1.31114,0.62011 -1.943014,0.90433 -0.07016,-0.69976 -0.106335,-1.52609 -0.191199,-2.16522 -0.253359,-1.90805 -0.568578,-3.51133 -0.992177,-4.74901 -0.211802,-0.61885 -0.43777,-1.14948 -0.790643,-1.62263 -0.352874,-0.47314 -0.957744,-0.97622 -1.75698,-0.97667 z m 0.32039,2.64581 5.307114,0.005 c 0.08809,0.13462 0.227782,0.38974 0.372067,0.81132 0.319299,0.93294 0.627469,2.42999 0.868155,4.24259 0.115656,0.87101 0.170049,1.99937 0.258378,3.00237 -1.434939,0.70278 -2.876594,1.46263 -4.39245,2.28407 -1.322534,-0.73173 -2.656094,-1.48527 -3.937703,-2.13938 0.09246,-1.05887 0.156629,-2.23781 0.27905,-3.15223 0.242634,-1.81236 0.553018,-3.30998 0.873323,-4.24259 0.14475,-0.42147 0.283827,-0.67678 0.372066,-0.81131 z m -13.585592,6.37163 c 0.160358,-0.009 0.450953,-0.003 0.888825,0.0827 0.967709,0.18945 2.417745,0.66728 4.108234,1.36425 1.269275,0.5233 2.774891,1.2597 4.268428,1.98952 -0.09849,1.46972 -0.155514,2.96814 -0.201536,4.54748 -1.529312,0.94133 -2.946666,1.8431 -4.314936,2.76983 -1.292049,-0.87531 -2.619311,-1.76568 -3.648319,-2.55796 -1.448823,-1.11553 -2.587012,-2.12985 -3.23491,-2.87318 -0.292951,-0.3361 -0.444396,-0.58509 -0.516759,-0.72863 z m 30.897015,0.59428 2.650973,4.59398 c -0.07234,0.14351 -0.218742,0.39264 -0.511591,0.72863 -0.647746,0.74318 -1.791557,1.75789 -3.240077,2.87318 -0.791151,0.60915 -1.852389,1.3014 -2.806001,1.96369 -1.154307,-0.80092 -2.282476,-1.57894 -3.581141,-2.40293 -0.04488,-1.75833 -0.107414,-3.42341 -0.217038,-5.04874 0.903903,-0.42002 1.902919,-0.92904 2.707818,-1.26089 1.690136,-0.69682 3.140752,-1.17485 4.108233,-1.36424 0.436886,-0.0855 0.728131,-0.0917 0.888824,-0.0827 z m -10.257664,3.90153 c 0.04103,0.71868 0.05375,1.46371 0.08268,2.21172 -0.6719,-0.40501 -1.300327,-0.81668 -1.984354,-1.21438 0.644059,-0.33843 1.276186,-0.68284 1.901674,-0.99734 z m -8.83141,0.21187 c 0.467665,0.24379 0.946571,0.52032 1.421087,0.77514 -0.227365,0.1297 -0.450083,0.23591 -0.676954,0.36689 -0.276838,0.15984 -0.525474,0.32954 -0.800976,0.49093 0.02317,-0.54415 0.02722,-1.10466 0.05684,-1.63296 z m 4.185748,2.2789 c 0.348026,0.19712 0.686645,0.363 1.033518,0.56327 1.303401,0.75252 2.523223,1.53028 3.772339,2.30475 0.01215,0.77821 0.05727,1.51654 0.05685,2.29957 -4.76e-4,0.88749 -0.05056,1.72415 -0.06718,2.60447 -0.774723,0.46699 -1.494107,0.94433 -2.284075,1.40041 -0.842382,0.48636 -1.667547,0.89944 -2.511448,1.36425 -1.202291,-0.64825 -2.389759,-1.26172 -3.596642,-1.95852 -0.249543,-0.14407 -0.474953,-0.29379 -0.723463,-0.43924 -0.02053,-1.00355 -0.07289,-1.96228 -0.07235,-2.97653 4.84e-4,-0.9062 0.04986,-1.76276 0.06718,-2.66131 0.748377,-0.45034 1.444221,-0.9086 2.206561,-1.34874 0.711305,-0.41068 1.405342,-0.75643 2.118712,-1.15238 z m -7.012419,4.14441 c -0.0025,0.34418 -0.02565,0.66819 -0.02584,1.01285 -2.47e-4,0.45543 0.02717,0.88399 0.03101,1.3384 -0.62606,-0.38557 -1.273695,-0.7675 -1.875835,-1.15237 0.610131,-0.40322 1.226299,-0.79049 1.870667,-1.19888 z m 14.505423,0.39791 c 0.445188,0.29191 0.774861,0.54991 1.19888,0.83714 -0.38049,0.2478 -0.816501,0.49474 -1.209215,0.74414 0.0023,-0.32494 0.02566,-0.63068 0.02584,-0.95601 1.14e-4,-0.21277 -0.01473,-0.41262 -0.0155,-0.62527 z m -18.737678,2.4546 c 1.358112,0.88482 2.844951,1.7603 4.314936,2.64064 0.04581,1.50682 0.107511,2.92724 0.201536,4.33044 -0.934517,0.43537 -1.960699,0.96012 -2.790498,1.30223 -1.690135,0.69681 -3.13559,1.17486 -4.103065,1.36424 -0.437776,0.0857 -0.733712,0.0919 -0.893993,0.0827 l -2.650974,-4.59398 c 0.07233,-0.14348 0.223878,-0.39261 0.516759,-0.72863 0.647745,-0.74316 1.786389,-1.75789 3.234911,-2.87318 0.612389,-0.47151 1.457555,-1.01938 2.170388,-1.52444 z m 22.246471,0 c 0.413741,0.30192 0.953443,0.64172 1.32807,0.93017 1.448825,1.11552 2.587013,2.12984 3.23491,2.87317 0.292952,0.33611 0.444398,0.5851 0.516761,0.72864 l -2.650973,4.59915 c -0.160355,0.009 -0.450946,0.003 -0.888827,-0.0827 -0.967709,-0.18943 -2.417745,-0.67245 -4.108232,-1.36941 -0.373382,-0.15394 -0.859239,-0.41006 -1.255724,-0.58394 0.107603,-1.55404 0.173893,-3.13657 0.222206,-4.81619 1.25164,-0.77158 2.453424,-1.5144 3.601809,-2.27891 z m -6.288956,3.9222 c -0.02845,0.6747 -0.04433,1.33451 -0.08268,1.98435 -0.64255,-0.30957 -1.189218,-0.52207 -1.860332,-0.86298 0.356689,-0.20209 0.703679,-0.37342 1.059355,-0.57877 0.305275,-0.17625 0.580042,-0.36448 0.883657,-0.5426 z m -8.955432,0.32039 c 0.494661,0.28219 0.977954,0.52612 1.472763,0.80098 -0.475034,0.2473 -0.941132,0.50502 -1.405584,0.73896 -0.0287,-0.50582 -0.04445,-1.01895 -0.06718,-1.53994 z m 4.242591,2.30475 c 1.543022,0.81188 2.955958,1.49759 4.382115,2.16521 -0.08776,0.97322 -0.144882,2.07711 -0.258379,2.92486 -0.242637,1.81236 -0.553016,3.3048 -0.873323,4.23742 -0.144753,0.42147 -0.283826,0.67679 -0.372066,0.81132 h -5.307114 c -0.08797,-0.13407 -0.227391,-0.39376 -0.372067,-0.81648 -0.319295,-0.93295 -0.627472,-2.42482 -0.868155,-4.23743 -0.117354,-0.8838 -0.174329,-2.02945 -0.263547,-3.04887 1.28843,-0.63247 2.576817,-1.30686 3.932536,-2.03603 z"/>
 </g>
</svg>
