<svg xmlns="http://www.w3.org/2000/svg" style="isolation:isolate" width="16" height="16" viewBox="0 0 16 16">
 <defs>
  <style id="current-color-scheme" type="text/css">
   .ColorScheme-Text { color:#ffffff; } .ColorScheme-Highlight { color:#5294e2; }
  </style>
  <linearGradient id="arrongin" x1="0%" x2="0%" y1="0%" y2="100%">
   <stop offset="0%" style="stop-color:#dd9b44; stop-opacity:1"/>
   <stop offset="100%" style="stop-color:#ad6c16; stop-opacity:1"/>
  </linearGradient>
  <linearGradient id="aurora" x1="0%" x2="0%" y1="0%" y2="100%">
   <stop offset="0%" style="stop-color:#09D4DF; stop-opacity:1"/>
   <stop offset="100%" style="stop-color:#9269F4; stop-opacity:1"/>
  </linearGradient>
  <linearGradient id="fitdance" x1="0%" x2="0%" y1="0%" y2="100%">
   <stop offset="0%" style="stop-color:#1AD6AB; stop-opacity:1"/>
   <stop offset="100%" style="stop-color:#329DB6; stop-opacity:1"/>
  </linearGradient>
  <linearGradient id="oomox" x1="0%" x2="0%" y1="0%" y2="100%">
   <stop offset="0%" style="stop-color:#efefe7; stop-opacity:1"/>
   <stop offset="100%" style="stop-color:#8f8f8b; stop-opacity:1"/>
  </linearGradient>
  <linearGradient id="rainblue" x1="0%" x2="0%" y1="0%" y2="100%">
   <stop offset="0%" style="stop-color:#00F260; stop-opacity:1"/>
   <stop offset="100%" style="stop-color:#0575E6; stop-opacity:1"/>
  </linearGradient>
  <linearGradient id="sunrise" x1="0%" x2="0%" y1="0%" y2="100%">
   <stop offset="0%" style="stop-color: #FF8501; stop-opacity:1"/>
   <stop offset="100%" style="stop-color: #FFCB01; stop-opacity:1"/>
  </linearGradient>
  <linearGradient id="telinkrin" x1="0%" x2="0%" y1="0%" y2="100%">
   <stop offset="0%" style="stop-color: #b2ced6; stop-opacity:1"/>
   <stop offset="100%" style="stop-color: #6da5b7; stop-opacity:1"/>
  </linearGradient>
  <linearGradient id="60spsycho" x1="0%" x2="0%" y1="0%" y2="100%">
   <stop offset="0%" style="stop-color: #df5940; stop-opacity:1"/>
   <stop offset="25%" style="stop-color: #d8d15f; stop-opacity:1"/>
   <stop offset="50%" style="stop-color: #e9882a; stop-opacity:1"/>
   <stop offset="100%" style="stop-color: #279362; stop-opacity:1"/>
  </linearGradient>
  <linearGradient id="90ssummer" x1="0%" x2="0%" y1="0%" y2="100%">
   <stop offset="0%" style="stop-color: #f618c7; stop-opacity:1"/>
   <stop offset="20%" style="stop-color: #94ffab; stop-opacity:1"/>
   <stop offset="50%" style="stop-color: #fbfd54; stop-opacity:1"/>
   <stop offset="100%" style="stop-color: #0f83ae; stop-opacity:1"/>
  </linearGradient>
  <linearGradient id="cyberneon" x1="0%" x2="0%" y1="0%" y2="100%">
    <stop offset="0" style="stop-color:#0abdc6; stop-opacity:1"/>
    <stop offset="1" style="stop-color:#ea00d9; stop-opacity:1"/>
  </linearGradient>
 </defs>
 <path style="fill:currentColor" class="ColorScheme-Text" fill-rule="evenodd" d="M 3.751 7.15 C 3.282 7.151 2.902 7.531 2.901 8 C 2.901 8.469 3.282 8.85 3.751 8.85 C 4.22 8.85 4.6 8.469 4.6 8 C 4.6 7.531 4.22 7.15 3.751 7.15 L 3.751 7.15 Z M 3.751 6.301 C 4.702 6.301 5.45 7.049 5.45 8 C 5.45 8.951 4.702 9.699 3.751 9.699 C 2.799 9.699 2.052 8.951 2.052 8 C 2.052 7.049 2.799 6.301 3.751 6.301 L 3.751 6.301 Z M 3.751 5.621 C 1.712 5.621 0.144 7.696 0.076 7.798 C -0.025 7.934 -0.025 8.067 0.076 8.202 C 0.144 8.304 1.712 10.379 3.751 10.379 C 5.79 10.379 7.357 8.304 7.425 8.202 C 7.527 8.066 7.527 7.933 7.425 7.798 C 7.357 7.696 5.79 5.621 3.751 5.621 L 3.751 5.621 Z M 12.249 7.15 C 11.78 7.151 11.4 7.531 11.4 8 C 11.4 8.469 11.78 8.85 12.249 8.85 C 12.718 8.85 13.099 8.469 13.099 8 C 13.099 7.531 12.718 7.15 12.249 7.15 L 12.249 7.15 Z M 12.249 6.301 C 13.201 6.301 13.948 7.049 13.948 8 C 13.948 8.951 13.201 9.699 12.249 9.699 C 11.298 9.699 10.55 8.951 10.55 8 C 10.55 7.049 11.298 6.301 12.249 6.301 L 12.249 6.301 Z M 12.249 5.621 C 10.21 5.621 8.643 7.696 8.575 7.798 C 8.473 7.934 8.473 8.067 8.575 8.202 C 8.643 8.304 10.21 10.379 12.249 10.379 C 14.288 10.379 15.856 8.304 15.924 8.202 C 16.025 8.066 16.025 7.933 15.924 7.798 C 15.856 7.696 14.288 5.621 12.249 5.621 L 12.249 5.621 Z"/>
</svg>
