<svg xmlns="http://www.w3.org/2000/svg" width="16" height="16" version="1.1">
 <defs>
  <style id="current-color-scheme" type="text/css">
   .ColorScheme-Text { color:#ffffff; } .ColorScheme-Highlight { color:#5294e2; }
  </style>
  <linearGradient id="arrongin" x1="0%" x2="0%" y1="0%" y2="100%">
   <stop offset="0%" style="stop-color:#dd9b44; stop-opacity:1"/>
   <stop offset="100%" style="stop-color:#ad6c16; stop-opacity:1"/>
  </linearGradient>
  <linearGradient id="aurora" x1="0%" x2="0%" y1="0%" y2="100%">
   <stop offset="0%" style="stop-color:#09D4DF; stop-opacity:1"/>
   <stop offset="100%" style="stop-color:#9269F4; stop-opacity:1"/>
  </linearGradient>
  <linearGradient id="fitdance" x1="0%" x2="0%" y1="0%" y2="100%">
   <stop offset="0%" style="stop-color:#1AD6AB; stop-opacity:1"/>
   <stop offset="100%" style="stop-color:#329DB6; stop-opacity:1"/>
  </linearGradient>
  <linearGradient id="oomox" x1="0%" x2="0%" y1="0%" y2="100%">
   <stop offset="0%" style="stop-color:#efefe7; stop-opacity:1"/>
   <stop offset="100%" style="stop-color:#8f8f8b; stop-opacity:1"/>
  </linearGradient>
  <linearGradient id="rainblue" x1="0%" x2="0%" y1="0%" y2="100%">
   <stop offset="0%" style="stop-color:#00F260; stop-opacity:1"/>
   <stop offset="100%" style="stop-color:#0575E6; stop-opacity:1"/>
  </linearGradient>
  <linearGradient id="sunrise" x1="0%" x2="0%" y1="0%" y2="100%">
   <stop offset="0%" style="stop-color: #FF8501; stop-opacity:1"/>
   <stop offset="100%" style="stop-color: #FFCB01; stop-opacity:1"/>
  </linearGradient>
  <linearGradient id="telinkrin" x1="0%" x2="0%" y1="0%" y2="100%">
   <stop offset="0%" style="stop-color: #b2ced6; stop-opacity:1"/>
   <stop offset="100%" style="stop-color: #6da5b7; stop-opacity:1"/>
  </linearGradient>
  <linearGradient id="60spsycho" x1="0%" x2="0%" y1="0%" y2="100%">
   <stop offset="0%" style="stop-color: #df5940; stop-opacity:1"/>
   <stop offset="25%" style="stop-color: #d8d15f; stop-opacity:1"/>
   <stop offset="50%" style="stop-color: #e9882a; stop-opacity:1"/>
   <stop offset="100%" style="stop-color: #279362; stop-opacity:1"/>
  </linearGradient>
  <linearGradient id="90ssummer" x1="0%" x2="0%" y1="0%" y2="100%">
   <stop offset="0%" style="stop-color: #f618c7; stop-opacity:1"/>
   <stop offset="20%" style="stop-color: #94ffab; stop-opacity:1"/>
   <stop offset="50%" style="stop-color: #fbfd54; stop-opacity:1"/>
   <stop offset="100%" style="stop-color: #0f83ae; stop-opacity:1"/>
  </linearGradient>
  <linearGradient id="cyberneon" x1="0%" x2="0%" y1="0%" y2="100%">
    <stop offset="0" style="stop-color:#0abdc6; stop-opacity:1"/>
    <stop offset="1" style="stop-color:#ea00d9; stop-opacity:1"/>
  </linearGradient>
  <style id="current-color-scheme" type="text/css">
   .ColorScheme-Text { color:#ffffff; } .ColorScheme-Highlight { color:#ffffff; } .ColorScheme-ButtonBackground { color:#ffffff; }
  </style>
 </defs>
 <g transform="matrix(0.88888814,0,0,0.88888814,-1.7777251,-917.41033)" style="fill:#bc1414">
  <path style="fill:none;stroke:currentColor;stroke-width:1.12493134" class="ColorScheme-ButtonBackground" d="m 10.998197,1035.0251 c 0,0 -3.3061832,5e-4 -5.5097807,0.1658 -0.307807,0.038 -0.9784238,0.042 -1.5773605,0.6921 -0.4721145,0.4956 -0.6254843,1.6201 -0.6254843,1.6201 0,0 -0.1549535,1.3221 -0.1572285,2.6437 l -0.00341,2.0013 c -0.00228,1.3218 0.1572285,2.6438 0.1572285,2.6438 0,0 0.1533699,1.1245 0.6254844,1.6201 0.5989979,0.6506 1.3859107,0.6307 1.7363478,0.699 1.259736,0.1253 5.3542063,0.164 5.3542063,0.164 0,0 3.307934,-0.01 5.511444,-0.1708 0.30779,-0.038 0.980349,-0.042 1.579111,-0.6922 0.472158,-0.4956 0.625484,-1.6201 0.625484,-1.6201 0,0 0.154953,-1.322 0.157228,-2.6438 l 0.0035,-2.0013 c 0.0023,-1.3216 -0.157229,-2.6437 -0.157229,-2.6437 0,0 -0.153336,-1.1245 -0.625484,-1.6201 -0.59878,-0.6505 -1.271286,-0.654 -1.579111,-0.6921 -2.20351,-0.1653 -5.508031,-0.1658 -5.508031,-0.1658 z m -2.6232466,2.6249 5.2499956,3.5121 -5.2499956,3.488 z"/>
 </g>
</svg>
