{
    "name": "Omni",
    "author": "Rocketseat",
    "maintainers": [
        "Diego Fernandes <diego.schell.f@gmail.com>",
        "Luke Morales <lukemorales@live.com>",
        "João Pedro Schmitz <hey@joaopedro.dev>"
    ],
    "semanticClass": "theme.omni",
    "omni": {
        "base": [
            "#161616",
            "#ffffff",
            "#525252",
            "#393939",
            "#3ddbd9",
            "#42be65",
            "#ffe97b",
            "#ff7eb6",
            "#ff7eb6",
            "#ee5396",
            "#ffe97b"
        ],
        "ansi": [
            "#262626",
            "#ff7eb6",
            "#42be65",
            "#ffe97b",
            "#33b1ff",
            "#ee5396",
            "#3ddbd9",
            "#dde1e6",
            "#393939",
            "#ff7eb6",
            "#42be65",
            "#ffe97b",
            "#33b1ff",
            "#ee5396",
            "#3ddbd9",
            "#ffffff"
        ],
        "brightOther": [
            "#dde1e6",
            "#3ddbd9"
        ],
        "other": [
            "#39393975",
            "#FFFFFF1A",
            "#eaeaea",
            "#39393970",
            "#262626",
            "#393939",
            "#161616",
            "#161616"
        ]
    },
    "colors": {
        "terminal.background": "#161616",
        "terminal.foreground": "#ffffff",
        "terminal.ansiBrightBlack": "#393939",
        "terminal.ansiBrightRed": "#ff7eb6",
        "terminal.ansiBrightGreen": "#ffe97b",
        "terminal.ansiBrightYellow": "#42be65",
        "terminal.ansiBrightBlue": "#33b1ff",
        "terminal.ansiBrightMagenta": "#ee5396",
        "terminal.ansiBrightCyan": "#3ddbd9",
        "terminal.ansiBrightWhite": "#ffffff",
        "terminal.ansiBlack": "#262626",
        "terminal.ansiRed": "#ff7eb6",
        "terminal.ansiGreen": "#ffe97b",
        "terminal.ansiYellow": "#42be65",
        "terminal.ansiBlue": "#33b1ff",
        "terminal.ansiMagenta": "#ee5396",
        "terminal.ansiCyan": "#3ddbd9",
        "terminal.ansiWhite": "#dde1e6",
        "terminal.selectionBackground": "#39393945",
        "terminalCursor.background": "#262626",
        "terminalCursor.foreground": "#ffffff",
        "contrastBorder": "#161616",
        "focusBorder": "#393939",
        "foreground": "#ffffff",
        "selection.background": "#ff7eb6",
        "errorForeground": "#ee5396",
        "button.background": "#525252",
        "button.foreground": "#ffffff",
        "dropdown.background": "#393939",
        "dropdown.border": "#161616",
        "dropdown.foreground": "#ffffff",
        "input.background": "#161616",
        "input.foreground": "#ffffff",
        "input.border": "#161616",
        "input.placeholderForeground": "#393939",
        "inputOption.activeBorder": "#ff7eb6",
        "inputValidation.infoBorder": "#ff7eb6",
        "inputValidation.warningBorder": "#ffe97b",
        "inputValidation.errorBorder": "#ee5396",
        "badge.foreground": "#ffffff",
        "badge.background": "#525252",
        "progressBar.background": "#ff7eb6",
        "list.activeSelectionBackground": "#52525260",
        "list.activeSelectionForeground": "#ffffff",
        "list.dropBackground": "#525252",
        "list.focusBackground": "#39393975",
        "list.highlightForeground": "#3ddbd9",
        "list.hoverBackground": "#52525265",
        "list.inactiveSelectionBackground": "#52525240",
        "list.warningForeground": "#ffe97b",
        "list.errorForeground": "#ee5396",
        "activityBar.background": "#393939",
        "activityBar.inactiveForeground": "#393939",
        "activityBar.foreground": "#ffffff",
        "activityBar.activeBorder": "#ff7eb680",
        "activityBar.activeBackground": "#52525240",
        "activityBarBadge.background": "#ff7eb6",
        "activityBarBadge.foreground": "#161616",
        "sideBar.background": "#161616",
        "sideBarTitle.foreground": "#ffffff",
        "sideBarSectionHeader.background": "#161616",
        "sideBarSectionHeader.border": "#161616",
        "editorGroup.border": "#525252",
        "editorGroup.dropBackground": "#39393970",
        "editorGroupHeader.tabsBackground": "#161616",
        "tab.activeBackground": "#161616",
        "tab.activeForeground": "#ffffff",
        "tab.border": "#161616",
        "tab.activeBorderTop": "#ff7eb680",
        "tab.inactiveBackground": "#161616",
        "tab.inactiveForeground": "#393939",
        "editor.foreground": "#ffffff",
        "editor.background": "#161616",
        "editorLineNumber.foreground": "#393939",
        "editor.selectionBackground": "#525252",
        "editor.selectionHighlightBackground": "#262626",
        "editor.foldBackground": "#161616",
        "editor.wordHighlightBackground": "#3ddbd950",
        "editor.wordHighlightStrongBackground": "#42be6550",
        "editor.findMatchBackground": "#ffe97b80",
        "editor.findMatchHighlightBackground": "#eaeaea40",
        "editor.findRangeHighlightBackground": "#39393975",
        "editor.hoverHighlightBackground": "#161616",
        "editor.lineHighlightBackground": "#393939",
        "editor.lineHighlightBorder": "#161616",
        "editorLink.activeForeground": "#3ddbd9",
        "editor.rangeHighlightBackground": "#ff7eb615",
        "editor.snippetTabstopHighlightBackground": "#161616",
        "editor.snippetTabstopHighlightBorder": "#393939",
        "editor.snippetFinalTabstopHighlightBackground": "#161616",
        "editor.snippetFinalTabstopHighlightBorder": "#42be65",
        "editorWhitespace.foreground": "#FFFFFF1A",
        "editorIndentGuide.background": "#FFFFFF1A",
        "editorIndentGuide.activeBackground": "#eaeaea45",
        "editorRuler.foreground": "#FFFFFF1A",
        "editorCodeLens.foreground": "#393939",
        "editorOverviewRuler.border": "#161616",
        "editorOverviewRuler.selectionHighlightForeground": "#ffe97b",
        "editorOverviewRuler.wordHighlightForeground": "#3ddbd9",
        "editorOverviewRuler.wordHighlightStrongForeground": "#42be65",
        "editorOverviewRuler.modifiedForeground": "#3ddbd980",
        "editorOverviewRuler.addedForeground": "#42be6580",
        "editorOverviewRuler.deletedForeground": "#ee539680",
        "editorOverviewRuler.errorForeground": "#ee539680",
        "editorOverviewRuler.warningForeground": "#ffe97b80",
        "editorOverviewRuler.infoForeground": "#3ddbd980",
        "editorError.foreground": "#ee5396",
        "editorWarning.foreground": "#3ddbd9",
        "editorGutter.modifiedBackground": "#3ddbd980",
        "editorGutter.addedBackground": "#42be6580",
        "editorGutter.deletedBackground": "#ee539680",
        "gitDecoration.modifiedResourceForeground": "#3ddbd9",
        "gitDecoration.deletedResourceForeground": "#ee5396",
        "gitDecoration.untrackedResourceForeground": "#42be65",
        "gitDecoration.ignoredResourceForeground": "#393939",
        "gitDecoration.conflictingResourceForeground": "#ffe97b",
        "diffEditor.insertedTextBackground": "#42be6520",
        "diffEditor.removedTextBackground": "#ee539650",
        "editorWidget.background": "#161616",
        "editorSuggestWidget.background": "#161616",
        "editorSuggestWidget.foreground": "#ffffff",
        "editorSuggestWidget.selectedBackground": "#525252",
        "editorHoverWidget.background": "#161616",
        "editorHoverWidget.border": "#393939",
        "editorMarkerNavigation.background": "#161616",
        "peekView.border": "#525252",
        "peekViewEditor.background": "#161616",
        "peekViewEditor.matchHighlightBackground": "#ffe97b80",
        "peekViewResult.background": "#161616",
        "peekViewResult.fileForeground": "#ffffff",
        "peekViewResult.lineForeground": "#ffffff",
        "peekViewResult.matchHighlightBackground": "#ffe97b80",
        "peekViewResult.selectionBackground": "#525252",
        "peekViewResult.selectionForeground": "#ffffff",
        "peekViewTitle.background": "#161616",
        "peekViewTitleDescription.foreground": "#393939",
        "peekViewTitleLabel.foreground": "#ffffff",
        "merge.currentHeaderBackground": "#42be6590",
        "merge.incomingHeaderBackground": "#ff7eb690",
        "editorOverviewRuler.currentContentForeground": "#42be65",
        "editorOverviewRuler.incomingContentForeground": "#ff7eb6",
        "panel.background": "#161616",
        "panel.border": "#ff7eb6",
        "panelTitle.activeBorder": "#ff7eb6",
        "panelTitle.activeForeground": "#ffffff",
        "panelTitle.inactiveForeground": "#ffffff80",
        "statusBar.background": "#161616",
        "statusBar.foreground": "#ffffff",
        "statusBar.debuggingBackground": "#ee5396",
        "statusBar.debuggingForeground": "#161616",
        "statusBar.noFolderBackground": "#161616",
        "statusBar.noFolderForeground": "#ffffff",
        "statusBarItem.prominentBackground": "#ee5396",
        "statusBarItem.prominentHoverBackground": "#ffe97b",
        "statusBarItem.remoteForeground": "#ffffff",
        "statusBarItem.remoteBackground": "#ff7eb6",
        "titleBar.activeBackground": "#161616",
        "titleBar.activeForeground": "#ffffff",
        "titleBar.inactiveBackground": "#161616",
        "titleBar.inactiveForeground": "#393939",
        "notification.background": "#161616",
        "notification.foreground": "#ffffff",
        "notification.buttonBackground": "#525252",
        "notification.buttonForeground": "#ffffff",
        "notification.buttonHoverBackground": "#39393975",
        "notification.errorBackground": "#ee5396",
        "notification.errorForeground": "#ffffff",
        "notification.infoBackground": "#3ddbd9",
        "notification.infoForeground": "#161616",
        "notification.warningBackground": "#ffe97b",
        "notification.warningForeground": "#161616",
        "extensionButton.prominentForeground": "#ffffff",
        "extensionButton.prominentBackground": "#42be6590",
        "extensionButton.prominentHoverBackground": "#42be6560",
        "pickerGroup.border": "#ff7eb6",
        "pickerGroup.foreground": "#3ddbd9",
        "debugToolBar.background": "#161616",
        "walkThrough.embeddedEditorBackground": "#161616",
        "settings.headerForeground": "#ffffff",
        "settings.modifiedItemForeground": "#ffe97b",
        "settings.modifiedItemIndicator": "#ffe97b",
        "settings.dropdownBackground": "#161616",
        "settings.dropdownForeground": "#ffffff",
        "settings.dropdownBorder": "#161616",
        "settings.checkboxBackground": "#161616",
        "settings.checkboxForeground": "#ffffff",
        "settings.checkboxBorder": "#161616",
        "settings.textInputBackground": "#161616",
        "settings.textInputForeground": "#ffffff",
        "settings.textInputBorder": "#161616",
        "settings.numberInputBackground": "#161616",
        "settings.numberInputForeground": "#ffffff",
        "settings.numberInputBorder": "#161616",
        "breadcrumb.foreground": "#393939",
        "breadcrumb.background": "#161616",
        "breadcrumb.focusForeground": "#ffffff",
        "breadcrumb.activeSelectionForeground": "#ffffff",
        "breadcrumbPicker.background": "#161616",
        "listFilterWidget.background": "#393939",
        "listFilterWidget.outline": "#262626",
        "listFilterWidget.noMatchesOutline": "#ee5396"
    },
    "tokenColors": [
        {
            "scope": [
                "emphasis"
            ],
            "settings": {
                "fontStyle": "italic"
            }
        },
        {
            "scope": [
                "strong"
            ],
            "settings": {
                "fontStyle": "bold"
            }
        },
        {
            "scope": [
                "header"
            ],
            "settings": {
                "foreground": "#ff7eb6"
            }
        },
        {
            "scope": [
                "source"
            ],
            "settings": {
                "foreground": "#ffffff"
            }
        },
        {
            "scope": [
                "meta.diff",
                "meta.diff.header"
            ],
            "settings": {
                "foreground": "#393939"
            }
        },
        {
            "scope": [
                "markup.inserted"
            ],
            "settings": {
                "foreground": "#42be65"
            }
        },
        {
            "scope": [
                "markup.deleted"
            ],
            "settings": {
                "foreground": "#ee5396"
            }
        },
        {
            "scope": [
                "markup.changed"
            ],
            "settings": {
                "foreground": "#ffe97b"
            }
        },
        {
            "scope": [
                "invalid"
            ],
            "settings": {
                "foreground": "#ee5396",
                "fontStyle": "underline italic"
            }
        },
        {
            "scope": [
                "invalid.deprecated"
            ],
            "settings": {
                "foreground": "#ffffff",
                "fontStyle": "underline italic"
            }
        },
        {
            "scope": [
                "entity.name.filename"
            ],
            "settings": {
                "foreground": "#ffe97b"
            }
        },
        {
            "scope": [
                "markup.error"
            ],
            "settings": {
                "foreground": "#ee5396"
            }
        },
        {
            "name": "Underlined markup",
            "scope": [
                "markup.underline"
            ],
            "settings": {
                "fontStyle": "underline"
            }
        },
        {
            "name": "Bold markup",
            "scope": [
                "markup.bold"
            ],
            "settings": {
                "fontStyle": "bold",
                "foreground": "#ffe97b"
            }
        },
        {
            "name": "Markup headings",
            "scope": [
                "markup.heading"
            ],
            "settings": {
                "fontStyle": "bold",
                "foreground": "#ff7eb6"
            }
        },
        {
            "name": "Markup italic",
            "scope": [
                "markup.italic"
            ],
            "settings": {
                "foreground": "#ffe97b",
                "fontStyle": "italic"
            }
        },
        {
            "name": "Bullets, lists (prose)",
            "scope": [
                "beginning.punctuation.definition.list.markdown",
                "beginning.punctuation.definition.quote.markdown",
                "punctuation.definition.link.restructuredtext"
            ],
            "settings": {
                "foreground": "#3ddbd9"
            }
        },
        {
            "name": "Inline code (prose)",
            "scope": [
                "markup.inline.raw",
                "markup.raw.restructuredtext"
            ],
            "settings": {
                "foreground": "#42be65"
            }
        },
        {
            "name": "Links (prose)",
            "scope": [
                "markup.underline.link",
                "markup.underline.link.image"
            ],
            "settings": {
                "foreground": "#3ddbd9"
            }
        },
        {
            "name": "Link text, image alt text (prose)",
            "scope": [
                "meta.link.reference.def.restructuredtext",
                "punctuation.definition.directive.restructuredtext",
                "string.other.link.description",
                "string.other.link.title"
            ],
            "settings": {
                "foreground": "#ff7eb6"
            }
        },
        {
            "name": "Blockquotes (prose)",
            "scope": [
                "entity.name.directive.restructuredtext",
                "markup.quote"
            ],
            "settings": {
                "foreground": "#ffe97b",
                "fontStyle": "italic"
            }
        },
        {
            "name": "Horizontal rule (prose)",
            "scope": [
                "meta.separator.markdown"
            ],
            "settings": {
                "foreground": "#393939"
            }
        },
        {
            "name": "Code blocks",
            "scope": [
                "fenced_code.block.language",
                "markup.raw.inner.restructuredtext",
                "markup.fenced_code.block.markdown punctuation.definition.markdown"
            ],
            "settings": {
                "foreground": "#42be65"
            }
        },
        {
            "name": "Prose constants",
            "scope": [
                "punctuation.definition.constant.restructuredtext"
            ],
            "settings": {
                "foreground": "#ff7eb6"
            }
        },
        {
            "name": "Braces in markdown headings",
            "scope": [
                "markup.heading.markdown punctuation.definition.string.begin",
                "markup.heading.markdown punctuation.definition.string.end"
            ],
            "settings": {
                "foreground": "#ff7eb6"
            }
        },
        {
            "name": "Braces in markdown paragraphs",
            "scope": [
                "meta.paragraph.markdown punctuation.definition.string.begin",
                "meta.paragraph.markdown punctuation.definition.string.end"
            ],
            "settings": {
                "foreground": "#ffffff"
            }
        },
        {
            "name": "Braces in markdown blockquotes",
            "scope": [
                "markup.quote.markdown meta.paragraph.markdown punctuation.definition.string.begin",
                "markup.quote.markdown meta.paragraph.markdown punctuation.definition.string.end"
            ],
            "settings": {
                "foreground": "#ffe97b"
            }
        },
        {
            "name": "User-defined class names",
            "scope": [
                "entity.name.type.class",
                "entity.name.class"
            ],
            "settings": {
                "foreground": "#3ddbd9",
                "fontStyle": "normal"
            }
        },
        {
            "name": "this, super, self, etc.",
            "scope": [
                "keyword.expressions-and-types.swift",
                "keyword.other.this",
                "variable.language",
                "variable.language punctuation.definition.variable.php",
                "variable.other.readwrite.instance.ruby",
                "variable.parameter.function.language.special"
            ],
            "settings": {
                "foreground": "#ff7eb6",
                "fontStyle": "italic"
            }
        },
        {
            "name": "Inherited classes",
            "scope": [
                "entity.other.inherited-class"
            ],
            "settings": {
                "fontStyle": "italic",
                "foreground": "#3ddbd9"
            }
        },
        {
            "name": "Comments",
            "scope": [
                "comment",
                "punctuation.definition.comment",
                "unused.comment",
                "wildcard.comment"
            ],
            "settings": {
                "foreground": "#393939"
            }
        },
        {
            "name": "JSDoc-style keywords",
            "scope": [
                "comment keyword.codetag.notation",
                "comment.block.documentation keyword",
                "comment.block.documentation storage.type.class"
            ],
            "settings": {
                "foreground": "#ff7eb6"
            }
        },
        {
            "name": "JSDoc-style types",
            "scope": [
                "comment.block.documentation entity.name.type"
            ],
            "settings": {
                "foreground": "#3ddbd9",
                "fontStyle": "italic"
            }
        },
        {
            "name": "JSDoc-style type brackets",
            "scope": [
                "comment.block.documentation entity.name.type punctuation.definition.bracket"
            ],
            "settings": {
                "foreground": "#3ddbd9"
            }
        },
        {
            "name": "JSDoc-style comment parameters",
            "scope": [
                "comment.block.documentation variable"
            ],
            "settings": {
                "foreground": "#ffe97b",
                "fontStyle": "italic"
            }
        },
        {
            "name": "Constants",
            "scope": [
                "constant",
                "variable.other.constant"
            ],
            "settings": {
                "foreground": "#ff7eb6"
            }
        },
        {
            "name": "Constant escape sequences",
            "scope": [
                "constant.character.escape",
                "constant.character.string.escape",
                "constant.regexp"
            ],
            "settings": {
                "foreground": "#ff7eb6"
            }
        },
        {
            "name": "HTML tags",
            "scope": [
                "entity.name.tag"
            ],
            "settings": {
                "foreground": "#ff7eb6"
            }
        },
        {
            "name": "CSS attribute parent selectors ('&')",
            "scope": [
                "entity.other.attribute-name.parent-selector"
            ],
            "settings": {
                "foreground": "#ff7eb6"
            }
        },
        {
            "name": "CSS ID",
            "scope": [
                "entity.other.attribute-name.id"
            ],
            "settings": {
                "foreground": "#ffe97b",
                "fontStyle": "italic"
            }
        },
        {
            "name": "HTML/CSS attribute names",
            "scope": [
                "entity.other.attribute-name"
            ],
            "settings": {
                "foreground": "#42be65",
                "fontStyle": "italic"
            }
        },
        {
            "name": "Tag inline source",
            "scope": [
                "meta.tag.inline source"
            ],
            "settings": {
                "foreground": "#ffe97b"
            }
        },
        {
            "name": "Function names",
            "scope": [
                "entity.name.function",
                "meta.function-call.generic",
                "meta.function-call.object",
                "meta.function-call.php",
                "meta.function-call.static",
                "meta.method-call.java meta.method",
                "meta.method.groovy",
                "support.function.any-method.lua",
                "keyword.operator.function.infix"
            ],
            "settings": {
                "foreground": "#42be65"
            }
        },
        {
            "name": "Function parameters",
            "scope": [
                "entity.name.variable.parameter",
                "meta.at-rule.function variable",
                "meta.at-rule.mixin variable",
                "meta.function.arguments variable.other.php",
                "meta.selectionset.graphql meta.arguments.graphql variable.arguments.graphql",
                "variable.parameter"
            ],
            "settings": {
                "fontStyle": "italic",
                "foreground": "#ffe97b"
            }
        },
        {
            "name": "Decorators",
            "scope": [
                "meta.decorator variable.other.readwrite",
                "meta.decorator variable.other.property"
            ],
            "settings": {
                "foreground": "#42be65",
                "fontStyle": "italic"
            }
        },
        {
            "name": "Decorator Objects",
            "scope": [
                "meta.decorator variable.other.object"
            ],
            "settings": {
                "foreground": "#42be65"
            }
        },
        {
            "name": "Keywords",
            "scope": [
                "keyword",
                "punctuation.definition.keyword"
            ],
            "settings": {
                "foreground": "#ff7eb6"
            }
        },
        {
            "name": "Keyword \"new\"",
            "scope": [
                "keyword.control.new",
                "keyword.operator.new"
            ],
            "settings": {
                "fontStyle": "bold"
            }
        },
        {
            "name": "Generic selectors (CSS/SCSS/Less/Stylus)",
            "scope": [
                "meta.selector"
            ],
            "settings": {
                "foreground": "#ff7eb6"
            }
        },
        {
            "name": "Language Built-ins",
            "scope": [
                "support"
            ],
            "settings": {
                "fontStyle": "italic",
                "foreground": "#3ddbd9"
            }
        },
        {
            "name": "Built-in magic functions and constants",
            "scope": [
                "support.function.magic",
                "support.variable",
                "variable.other.predefined"
            ],
            "settings": {
                "fontStyle": "regular",
                "foreground": "#ff7eb6"
            }
        },
        {
            "name": "Built-in functions / properties",
            "scope": [
                "support.function",
                "support.type.property-name"
            ],
            "settings": {
                "fontStyle": "regular"
            }
        },
        {
            "name": "Separators (key/value, namespace, inheritance, pointer, hash, slice, etc)",
            "scope": [
                "constant.other.symbol.hashkey punctuation.definition.constant.ruby",
                "entity.other.attribute-name.placeholder punctuation",
                "entity.other.attribute-name.pseudo-class punctuation",
                "entity.other.attribute-name.pseudo-element punctuation",
                "meta.group.double.toml",
                "meta.group.toml",
                "meta.object-binding-pattern-variable punctuation.destructuring",
                "punctuation.colon.graphql",
                "punctuation.definition.block.scalar.folded.yaml",
                "punctuation.definition.block.scalar.literal.yaml",
                "punctuation.definition.block.sequence.item.yaml",
                "punctuation.definition.entity.other.inherited-class",
                "punctuation.function.swift",
                "punctuation.separator.dictionary.key-value",
                "punctuation.separator.hash",
                "punctuation.separator.inheritance",
                "punctuation.separator.key-value",
                "punctuation.separator.key-value.mapping.yaml",
                "punctuation.separator.namespace",
                "punctuation.separator.pointer-access",
                "punctuation.separator.slice",
                "string.unquoted.heredoc punctuation.definition.string",
                "support.other.chomping-indicator.yaml",
                "punctuation.separator.annotation"
            ],
            "settings": {
                "foreground": "#ff7eb6"
            }
        },
        {
            "name": "Brackets, braces, parens, etc.",
            "scope": [
                "keyword.operator.other.powershell",
                "keyword.other.statement-separator.powershell",
                "meta.brace.round",
                "meta.function-call punctuation",
                "punctuation.definition.arguments.begin",
                "punctuation.definition.arguments.end",
                "punctuation.definition.entity.begin",
                "punctuation.definition.entity.end",
                "punctuation.definition.tag.cs",
                "punctuation.definition.type.begin",
                "punctuation.definition.type.end",
                "punctuation.section.scope.begin",
                "punctuation.section.scope.end",
                "storage.type.generic.java",
                "string.template meta.brace",
                "string.template punctuation.accessor"
            ],
            "settings": {
                "foreground": "#ffffff"
            }
        },
        {
            "name": "Variable interpolation operators",
            "scope": [
                "meta.string-contents.quoted.double punctuation.definition.variable",
                "punctuation.definition.interpolation.begin",
                "punctuation.definition.interpolation.end",
                "punctuation.definition.template-expression.begin",
                "punctuation.definition.template-expression.end",
                "punctuation.section.embedded.begin",
                "punctuation.section.embedded.coffee",
                "punctuation.section.embedded.end",
                "punctuation.section.embedded.end source.php",
                "punctuation.section.embedded.end source.ruby",
                "punctuation.definition.variable.makefile"
            ],
            "settings": {
                "foreground": "#ff7eb6"
            }
        },
        {
            "name": "Keys (serializable languages)",
            "scope": [
                "entity.name.function.target.makefile",
                "entity.name.section.toml",
                "entity.name.tag.yaml",
                "variable.other.key.toml"
            ],
            "settings": {
                "foreground": "#3ddbd9"
            }
        },
        {
            "name": "Dates / timestamps (serializable languages)",
            "scope": [
                "constant.other.date",
                "constant.other.timestamp"
            ],
            "settings": {
                "foreground": "#ffe97b"
            }
        },
        {
            "name": "YAML aliases",
            "scope": [
                "variable.other.alias.yaml"
            ],
            "settings": {
                "fontStyle": "italic underline",
                "foreground": "#42be65"
            }
        },
        {
            "name": "Storage",
            "scope": [
                "storage",
                "meta.implementation storage.type.objc",
                "meta.interface-or-protocol storage.type.objc",
                "source.groovy storage.type.def"
            ],
            "settings": {
                "fontStyle": "regular",
                "foreground": "#ff7eb6"
            }
        },
        {
            "name": "Types",
            "scope": [
                "entity.name.type",
                "keyword.primitive-datatypes.swift",
                "keyword.type.cs",
                "meta.protocol-list.objc",
                "meta.return-type.objc",
                "source.go storage.type",
                "source.groovy storage.type",
                "source.java storage.type",
                "source.powershell entity.other.attribute-name",
                "storage.class.std.rust",
                "storage.type.attribute.swift",
                "storage.type.c",
                "storage.type.core.rust",
                "storage.type.cs",
                "storage.type.groovy",
                "storage.type.objc",
                "storage.type.php",
                "storage.type.haskell",
                "storage.type.ocaml"
            ],
            "settings": {
                "fontStyle": "italic",
                "foreground": "#3ddbd9"
            }
        },
        {
            "name": "Generics, templates, and mapped type declarations",
            "scope": [
                "entity.name.type.type-parameter",
                "meta.indexer.mappedtype.declaration entity.name.type",
                "meta.type.parameters entity.name.type"
            ],
            "settings": {
                "foreground": "#ffe97b"
            }
        },
        {
            "name": "Modifiers",
            "scope": [
                "storage.modifier"
            ],
            "settings": {
                "foreground": "#ff7eb6"
            }
        },
        {
            "name": "RegExp string",
            "scope": [
                "string.regexp",
                "constant.other.character-class.set.regexp",
                "constant.character.escape.backslash.regexp"
            ],
            "settings": {
                "foreground": "#ffe97b"
            }
        },
        {
            "name": "Non-capture operators",
            "scope": [
                "punctuation.definition.group.capture.regexp"
            ],
            "settings": {
                "foreground": "#ff7eb6"
            }
        },
        {
            "name": "RegExp start and end characters",
            "scope": [
                "string.regexp punctuation.definition.string.begin",
                "string.regexp punctuation.definition.string.end"
            ],
            "settings": {
                "foreground": "#ee5396"
            }
        },
        {
            "name": "Character group",
            "scope": [
                "punctuation.definition.character-class.regexp"
            ],
            "settings": {
                "foreground": "#3ddbd9"
            }
        },
        {
            "name": "Capture groups",
            "scope": [
                "punctuation.definition.group.regexp"
            ],
            "settings": {
                "foreground": "#ffe97b"
            }
        },
        {
            "name": "Assertion operators",
            "scope": [
                "punctuation.definition.group.assertion.regexp",
                "keyword.operator.negation.regexp"
            ],
            "settings": {
                "foreground": "#ee5396"
            }
        },
        {
            "name": "Positive lookaheads",
            "scope": [
                "meta.assertion.look-ahead.regexp"
            ],
            "settings": {
                "foreground": "#42be65"
            }
        },
        {
            "name": "Strings",
            "scope": [
                "string"
            ],
            "settings": {
                "foreground": "#ffe97b"
            }
        },
        {
            "name": "String quotes (temporary vscode fix)",
            "scope": [
                "punctuation.definition.string.begin",
                "punctuation.definition.string.end"
            ],
            "settings": {
                "foreground": "#dde1e6"
            }
        },
        {
            "name": "Property quotes (temporary vscode fix)",
            "scope": [
                "punctuation.support.type.property-name.begin",
                "punctuation.support.type.property-name.end"
            ],
            "settings": {
                "foreground": "#3ddbd9"
            }
        },
        {
            "name": "Docstrings",
            "scope": [
                "string.quoted.docstring.multi",
                "string.quoted.docstring.multi.python punctuation.definition.string.begin",
                "string.quoted.docstring.multi.python punctuation.definition.string.end",
                "string.quoted.docstring.multi.python constant.character.escape"
            ],
            "settings": {
                "foreground": "#393939"
            }
        },
        {
            "name": "Variables and object properties",
            "scope": [
                "variable",
                "constant.other.key.perl",
                "support.variable.property",
                "variable.other.constant.js",
                "variable.other.constant.ts",
                "variable.other.constant.tsx"
            ],
            "settings": {
                "foreground": "#ffffff"
            }
        },
        {
            "name": "Destructuring / aliasing reference name (LHS)",
            "scope": [
                "meta.import variable.other.readwrite",
                "meta.object-binding-pattern-variable variable.object.property",
                "meta.variable.assignment.destructured.object.coffee variable"
            ],
            "settings": {
                "fontStyle": "italic",
                "foreground": "#ffe97b"
            }
        },
        {
            "name": "Destructuring / aliasing variable name (RHS)",
            "scope": [
                "meta.import variable.other.readwrite.alias",
                "meta.export variable.other.readwrite.alias",
                "meta.variable.assignment.destructured.object.coffee variable variable"
            ],
            "settings": {
                "fontStyle": "normal",
                "foreground": "#ffffff"
            }
        },
        {
            "name": "GraphQL keys",
            "scope": [
                "meta.selectionset.graphql variable"
            ],
            "settings": {
                "foreground": "#ffe97b"
            }
        },
        {
            "name": "GraphQL function arguments",
            "scope": [
                "meta.selectionset.graphql meta.arguments variable"
            ],
            "settings": {
                "foreground": "#ffffff"
            }
        },
        {
            "name": "GraphQL fragment name (definition)",
            "scope": [
                "entity.name.fragment.graphql",
                "variable.fragment.graphql"
            ],
            "settings": {
                "foreground": "#3ddbd9"
            }
        },
        {
            "name": "Edge cases (foreground color resets)",
            "scope": [
                "constant.other.symbol.hashkey.ruby",
                "keyword.operator.dereference.java",
                "keyword.operator.navigation.groovy",
                "meta.scope.for-loop.shell punctuation.definition.string.begin",
                "meta.scope.for-loop.shell punctuation.definition.string.end",
                "meta.scope.for-loop.shell string",
                "storage.modifier.import",
                "punctuation.section.embedded.begin.tsx",
                "punctuation.section.embedded.end.tsx",
                "punctuation.section.embedded.begin.jsx",
                "punctuation.section.embedded.end.jsx",
                "punctuation.separator.list.comma.css",
                "constant.language.empty-list.haskell"
            ],
            "settings": {
                "foreground": "#ffffff"
            }
        },
        {
            "name": "Shell variables prefixed with \"$\" (edge case)",
            "scope": [
                "source.shell variable.other"
            ],
            "settings": {
                "foreground": "#ff7eb6"
            }
        },
        {
            "name": "Powershell constants mistakenly scoped to `support`, rather than `constant` (edge)",
            "scope": [
                "support.constant"
            ],
            "settings": {
                "fontStyle": "normal",
                "foreground": "#ff7eb6"
            }
        },
        {
            "name": "Makefile prerequisite names",
            "scope": [
                "meta.scope.prerequisites.makefile"
            ],
            "settings": {
                "foreground": "#ffe97b"
            }
        },
        {
            "name": "SCSS attibute selector strings",
            "scope": [
                "meta.attribute-selector.scss"
            ],
            "settings": {
                "foreground": "#ffe97b"
            }
        },
        {
            "name": "SCSS attribute selector brackets",
            "scope": [
                "punctuation.definition.attribute-selector.end.bracket.square.scss",
                "punctuation.definition.attribute-selector.begin.bracket.square.scss"
            ],
            "settings": {
                "foreground": "#ffffff"
            }
        },
        {
            "name": "Haskell Pragmas",
            "scope": [
                "meta.preprocessor.haskell"
            ],
            "settings": {
                "foreground": "#393939"
            }
        }
    ]
}